
newshire_missions_1 = {
	slot = 1
	ai = yes
	generic = no
	potential = {
		tag = B50
	}
	has_country_shield = yes

	B50_our_fellow_small_fellows = {
		icon = mission_diplomacy_missive
		required_missions = {
			B50_out_of_the_frying_pan
		}
		position = 3
		
		provinces_to_highlight = {
			is_capital = yes
			owner = { culture_group = halfling }
			NOT = { country_or_non_sovereign_subject_holds = ROOT }
		}
		
		trigger = {
			any_known_country = {
				culture_group = halfling
				has_opinion = {
					who = ROOT
					value = 120
				}
			}
		}
		
		effect = {
			add_country_modifier = {
				name = newshire_envoy_speed
				duration = 9125
			}
		}
	}

	B50_riddles_in_the_dark = {
		icon = mission_missive
		required_missions = {
			B50_our_fellow_small_fellows
		}
		position = 4
		
		provinces_to_highlight = {
			is_capital = yes
			owner = { culture_group = dwarven }
		}
		
		trigger = {
			any_known_country = {
				culture_group = dwarven
				has_opinion = {
					who = ROOT
					value = 120
				}
			}
		}
		
		effect = {
			medium_increase_of_dwarven_tolerance_effect = yes
			capital_scope = { add_dwarven_minority_size_effect = yes }
		}
	}

	B50_buzzing_sounds = { # Import The Namesake
		icon = mission_door_trade
		required_missions = {
			B50_our_eyes_are_yet_to_open
		}
		position = 9
		
		provinces_to_highlight = {
			province_id = 151
		}
		
		trigger = {
			OR = {
				any_ally = { owns = 151 }
				any_known_country = {
					owns = 151
					has_spy_network_from = {
						who = ROOT
						value = 50
					}
				}
				151 = {
					owned_by = ROOT
				}
			}
		}
		
		effect = {
			add_country_modifier = {
				name = newshire_unfriendly_deliveries
				duration = 3650
			}
		}
	}

	B50_blessed_be_our_bees = {
		icon = mission_forest_shrine
		required_missions = {
			B50_buzzing_sounds
		}
		position = 10
		
		provinces_to_highlight = {
			has_terrain = farmlands
			owned_by = ROOT
		}
		
		trigger = {
			NOT = { has_country_modifier = newshire_unfriendly_deliveries }
			num_of_owned_provinces_with = {
				value = 3
				has_terrain = farmlands
				OR = {
					has_building = temple
					has_building = cathedral
				}
			}
			dip_power = 50
		}
		
		effect = {
			add_dip_power = -50
			add_country_modifier = {
				name = newshire_buzzing_farmhands
				duration = -1
			}
		}
	}

	B50_knights_of_black_and_yellow = {
		icon = mission_greentide
		required_missions = {
			B50_blessed_be_our_bees
			B50_burst_into_bloom
		}
		position = 11
		
		trigger = {
			custom_trigger_tooltip = {
				tooltip = transmutation_2_tooltip
				has_ruler_flag = transmutation_2
			}
			estate_influence = {
				estate = estate_mages
				influence = 40
			}
		}
		
		effect = {
			add_country_modifier = {
				name = newshire_bee_knights
				duration = -1
			}
		}
	}
}

newshire_missions_2 = {
	slot = 2
	ai = yes
	generic = no
	potential = {
		tag = B50
	}
	has_country_shield = yes

	B50_out_of_the_frying_pan = {
		icon = mission_forest_pilgrim
		required_missions = {
			B50_a_seed_sown
		}
		position = 2
		
		trigger = {
			calc_true_if = {
				amount = 2
				desc = newshire_frying_pan_tooltip
				all_known_country = {
					capital_scope = { superregion = escann_superregion }
					has_opinion = {
						who = ROOT
						value = 120
					}
				}
			}
		}
		
		effect = {
			define_advisor = {
				type = statesman
				name = "Austin Kettlebrook"
				skill = 2
				culture = redfoot_halfling
				religion = regent_court
				discount = yes
			}
			add_country_modifier = {
				name = newshire_frying_pan
				duration = 9125
			}
		}
	}

	B50_a_gentlefolk = {
		icon = mission_rice_farming
		required_missions = {
			B50_out_of_the_frying_pan
		}
		position = 3
		
		trigger = {
			estate_loyalty = {
				estate = estate_adventurers
				loyalty = 50
			}
			NOT = {
				estate_influence = {
					estate = estate_adventurers
					influence = 40
				}
			}
		}
		
		effect = {
			add_country_modifier = {
				name = newshire_simple_lives
				duration = -1
			}
		}
	}

	B50_setting_ourselves_apart = {
		icon = mission_feast
		required_missions = {
			B50_a_gentlefolk
		}
		position = 4
		
		provinces_to_highlight = {
			province_id = 766
			NOT = {
				AND = {
					development = 12
					OR = {
						has_production_building_trigger = yes
						trade_goods = gold
					}
				}
			}
		}
		
		trigger = {
			culture = newfoot_halfling
			owns_core_province = 766
			766 = {
				development = 12
				OR = {
					has_production_building_trigger = yes
					trade_goods = gold
				}
			}
		}
		
		effect = {
			country_event = { id = flavor_newshire.3 }
		}
	}

	B50_born_of_the_blood = {
		icon = mission_whisper
		required_missions = {
			B50_setting_ourselves_apart
		}
		position = 5
		
		trigger = {
			OR = {
				custom_trigger_tooltip = {
					tooltip = crimson_deluge_over_tooltip
					has_global_flag = crimson_deluge_is_over
				}
				AND = {
					custom_trigger_tooltip = {
						tooltip = crimson_deluge_started_tooltip
						has_global_flag = crimson_deluge_is_actively_happening
					}
					estate_loyalty = {
						estate = estate_mages
						loyalty = 40
					}
					estate_influence = {
						estate =  estate_mages
						influence = 30
					}
					advisor = court_mage
				}
			}
		}
		
		effect = {
			country_event = { id = flavor_newshire.5 }
		}
	}

	B50_made_by_the_blood = {
		icon = mission_dual_diplomacy
		required_missions = {
			B50_born_of_the_blood
		}
		position = 6
		
		trigger = {
			OR = {
				custom_trigger_tooltip = {
					tooltip = crimson_deluge_over_tooltip
					has_global_flag = crimson_deluge_is_over
				}
				AND = {
					num_of_owned_provinces_with = {
						value = 8
						custom_trigger_tooltip = {
							tooltip = affected_by_deluge_tooltip
							OR = {
								has_province_modifier = crimson_deluge_province
								has_province_modifier = crimson_deluge_province_heavy
							}
						}
						has_production_building_trigger = yes
					}
					any_owned_province = {
						custom_trigger_tooltip = {
							tooltip = affected_by_deluge_tooltip
							OR = {
								has_province_modifier = crimson_deluge_province
								has_province_modifier = crimson_deluge_province_heavy
							}
						}
						has_building = mage_tower
					}
				}
			}
		}
		
		effect = {
			country_event = { id = flavor_newshire.6 }
			hidden_effect = {
				every_owned_province = {
					add_devastation = -25
				}
			}
			custom_tooltip = newshire_devastation_tooltip
		}
	}

	B50_undone_by_the_blood = {
		icon = mission_dark_book
		required_missions = {
			B50_made_by_the_blood
			B50_queer_lodgings
		}
		position = 7
		
		trigger = {
			OR = {
				custom_trigger_tooltip = {
					tooltip = crimson_deluge_over_tooltip
					has_global_flag = crimson_deluge_is_over
				}
				AND = {
					custom_trigger_tooltip = {
						tooltip = crimson_deluge_started_tooltip
						has_global_flag = crimson_deluge_is_actively_happening
					}
					stability = 2
					army_organiser = 2
				}
			}
		}
		
		effect = {
			country_event = { id = flavor_newshire.7 }
		}
	}

	B50_our_eyes_are_yet_to_open = {
		icon = mission_potion
		required_missions = {
			B50_undone_by_the_blood
		}
		position = 8
		
		provinces_to_highlight = {
			owned_by = ROOT
			OR = {
				area = silvervord_area
				area = merescker_area
				area = verteben_area
				area = rohibon_area
			}
			devastation = 1
		}
		
		trigger = {
			custom_trigger_tooltip = {
				tooltip = crimson_deluge_ended_tooltip
				has_country_flag = newshire_deluge_over
			}
			silvervord_area = {
				type = all
				NOT = { devastation = 1 }
			}
			merescker_area = {
				type = all
				NOT = { devastation = 1 }
			}
			verteben_area = {
				type = all
				NOT = { devastation = 1 }
			}
			rohibon_area = {
				type = all
				NOT = { devastation = 1 }
			}
		}
		
		effect = {
			country_event = { id = flavor_newshire.8 }
		}
	}

	B50_fill_the_kettles = {
		icon = mission_city_prosperity
		required_missions = {
			B50_our_eyes_are_yet_to_open
		}
		position = 9
		
		provinces_to_highlight = {
			OR = {
				province_id = 769
				province_id = 766
			}
			NOT = {
				AND = {
					owned_by = ROOT
					OR = {
						has_production_building_trigger = yes
						trade_goods = gold
					}
					base_production = 8
				}
			}
		}
		
		trigger = {
			769 = {
				owned_by = ROOT
				OR = {
					has_production_building_trigger = yes
					trade_goods = gold
				}
				base_production = 8
			}
			766 = {
				owned_by = ROOT
				OR = {
					has_production_building_trigger = yes
					trade_goods = gold
				}
				base_production = 8
			}
		}
		
		effect = {
			769 = {
				change_province_name = "Rohiboos"
				rename_capital = "Rohiboos"
				change_trade_goods = tea
			}
		}
	}

	B50_cultural_exports = {
		icon = mission_confrontation
		required_missions = {
			B50_fill_the_kettles
		}
		position = 10
		
		provinces_to_highlight = {
			province_id = 769
			NOT = {
				AND = {
					owned_by = ROOT
					has_building = plantations
				}
			}
		}
		
		trigger = {
			num_of_allies = 3
			treasury = 75
			769 = {
				owned_by = ROOT
				has_building = plantations
			}
		}
		
		effect = {
			add_treasury = -75
			country_event = { id = flavor_newshire.9 }
		}
	}
}

newshire_missions_3 = {
	slot = 3
	ai = yes
	generic = no
	potential = {
		tag = B50
	}
	has_country_shield = yes

	B50_a_seed_sown = {
		icon = mission_star_comet
		required_missions = { }
		position = 1
		
		provinces_to_highlight = {
			region = west_castanor_region
			has_terrain = farmlands
			NOT = { owned_by = ROOT }
		}
		
		trigger = {
			num_of_owned_provinces_with = {
				value = 5
				region = west_castanor_region
			}
			any_owned_province = {
				region = west_castanor_region
				has_terrain = farmlands
				development = 15
			}
		}
		
		effect = {
			country_event = { id = flavor_newshire.2 }
			adenica_area = {
				limit = {
					NOT = { is_core = ROOT }
					NOT = { owned_by = ROOT }
				}
				add_permanent_claim = ROOT
			}
			upcreek_area = {
				limit = {
					NOT = { is_core = ROOT }
					NOT = { owned_by = ROOT }
				}
				add_permanent_claim = ROOT
			}
			taran_plains_area = {
				limit = {
					NOT = { is_core = ROOT }
					NOT = { owned_by = ROOT }
				}
				add_permanent_claim = ROOT
			}
		}
	}

	B50_loamy_soil = {
		icon = mission_jungle_pilgrim
		required_missions = {
			B50_out_of_the_frying_pan
			B50_into_the_fire
		}
		position = 3
		
		trigger = {
			num_of_owned_provinces_with = {
				value = 3
				has_terrain = farmlands
			}
			num_of_owned_provinces_with = {
				value = 3
				has_terrain = woods
			}
			num_of_owned_provinces_with = {
				value = 3
				has_terrain = grasslands
			}
		}
		
		effect = {
			add_country_modifier = {
				name = newshire_overgrowth
				duration = 18250
			}
		}
	}

	B50_the_western_farthing = {
		icon = mission_horse_siege
		required_missions = {
			B50_the_eastern_farthing
		}
		position = 5
		
		provinces_to_highlight = {
			OR = {
				AND = {
					area = rohibon_area
					NOT = { country_or_non_sovereign_subject_holds = ROOT }
				}
				AND = {
					province_id = 771
					NOT = {
						AND = {
							development = 18
							OR = {
								has_production_building_trigger = yes
								trade_goods = gold
							}
						}
					}
				}
			}
		}
		
		trigger = {
			rohibon_area = {
				type = all
				country_or_non_sovereign_subject_holds = ROOT
			}
			771 = {
				development = 18
				OR = {
					has_production_building_trigger = yes
					trade_goods = gold
				}
			}
		}
		
		effect = {
			rohibon_area = {
				custom_tooltip = displacement_tooltip
				hidden_effect = {	
					change_culture = ROOT
					change_religion = ROOT
				}
				add_province_modifier = {
					name = newshire_displaced_settlers
					duration = 3650
				}
			}
			771 = {
				change_province_name = "Freshcobble"
				rename_capital = "Freshcobble"
			}
		}
	}

	B50_queer_lodgings = {
		icon = mission_tree_fishing
		required_missions = {
			B50_the_western_farthing
			B50_the_southern_farthing
		}
		position = 6
		
		provinces_to_highlight = {
			OR = {
				province_id = 771
				province_id = 756
				province_id = 787
				province_id = 781
			}
			NOT = { owned_by = ROOT }
		}
		
		trigger = {
			NOT = { average_unrest = 0 }
			treasury = 250
			is_at_war = no
			771 = {
				owned_by = ROOT
			}
			756 = {
				owned_by = ROOT
			}
			787 = {
				owned_by = ROOT
			}
			781 = {
				owned_by = ROOT
			}
		}
		
		effect = {
			add_treasury = -250
			771 = {
				add_province_modifier = {
					name = newshire_halfling_holes
					duration = -1
				}
			}
			756 = {
				add_province_modifier = {
					name = newshire_halfling_holes
					duration = -1
				}
			}
			787 = {
				add_province_modifier = {
					name = newshire_halfling_holes
					duration = -1
				}
			}
			781 = {
				add_province_modifier = {
					name = newshire_halfling_holes
					duration = -1
				}
			}
		}
	}

	B50_the_first_free_fair = {
		icon = mission_arverynn_street
		required_missions = {
			B50_queer_lodgings
		}
		position = 7
		
		provinces_to_highlight = {
			province_id = 756
			NOT = {
				AND = {
					owned_by = ROOT
					has_building = courthouse
				}
			}
		}
		
		trigger = {
			756 = {
				owned_by = ROOT
				has_building = courthouse
			}
			NOT = { ruler_has_personality = embezzler_personality }
			adm_power = 100
			is_at_war = no
		}
		
		effect = {
			756 = { add_building = town_hall }
			add_adm_power = -100
			country_event = { id = flavor_newshire.10 }
		}
	}

	B50_enshrine_the_farthings = {
		icon = mission_magnificent_castle
		required_missions = {
			B50_the_first_free_fair
			B50_not_at_home
		}
		position = 8
		
		provinces_to_highlight = {
			OR = {
				province_id = 771
				province_id = 787
				province_id = 781
			}
			NOT = {
				AND = {
					owned_by = ROOT
					has_courthouse_building_trigger = yes
				}
			}
		}
		
		trigger = {
			771 = {
				owned_by = ROOT
				has_courthouse_building_trigger = yes
			}
			787 = {
				owned_by = ROOT
				has_courthouse_building_trigger = yes
			}
			781 = {
				owned_by = ROOT
				has_courthouse_building_trigger = yes
			}
			adm_power = 75
		}
		
		effect = {
			add_adm_power = -75
			verteben_area = {
				add_province_modifier = {
					name = newshire_integration
					duration = 3650
				}
			}
			merescker_area = {
				add_province_modifier = {
					name = newshire_integration
					duration = 3650
				}
			}
			silvervord_area = {
				add_province_modifier = {
					name = newshire_integration
					duration = 3650
				}
			}
			rohibon_area = {
				add_province_modifier = {
					name = newshire_integration
					duration = 3650
				}
			}
			cursewood_area = {
				limit = {
					NOT = { is_core = ROOT }
					NOT = { owned_by = ROOT }
				}
				add_permanent_claim = ROOT
			}
			whistlevale_area = {
				limit = {
					NOT = { is_core = ROOT }
					NOT = { owned_by = ROOT }
				}
				add_permanent_claim = ROOT
			}
			catelsvord_area = {
				limit = {
					NOT = { is_core = ROOT }
					NOT = { owned_by = ROOT }
				}
				add_permanent_claim = ROOT
			}
			devaced_area = {
				limit = {
					NOT = { is_core = ROOT }
					NOT = { owned_by = ROOT }
				}
				add_permanent_claim = ROOT
			}
		}
	}

	B50_growing_strong = {
		icon = mission_blood_sacrifice
		required_missions = {
			B50_our_eyes_are_yet_to_open
			B50_enshrine_the_farthings
		}
		position = 9
		
		provinces_to_highlight = {
			OR = {
				area = cursewood_area
				area = whistlevale_area
				area = devaced_area
				area = catelsvord_area
				province_id = 777
			}
			NOT = { owned_by = ROOT }
		}
		
		trigger = {
			num_of_owned_provinces_with = {
				value = 8
				OR = {
					area = cursewood_area
					area = whistlevale_area
					area = devaced_area
					area = catelsvord_area
				}
			}
			777 = {
				owned_by = ROOT
			}
		}
		
		effect = {
			country_event = { id = flavor_newshire.16 }
		}
	}

	B50_burst_into_bloom = {
		icon = mission_empowerment
		required_missions = {
			B50_growing_strong
		}
		position = 10
		
		provinces_to_highlight = {
			province_id = 777
			NOT = {
				AND = {
					owned_by = ROOT
					NOT = { has_province_modifier = newshire_grand_experiment }
					has_building = mage_tower
				}
			}
		}
		
		trigger = {
			777 = {
				owned_by = ROOT
				NOT = { has_province_modifier = newshire_grand_experiment }
				has_building = mage_tower
			}
			estate_loyalty = {
				estate = estate_mages
				loyalty = 40
			}
		}
		
		effect = {
			custom_tooltip = displacement_escin_tooltip
			777 = {
				change_province_name = "Sunvale"
				rename_capital = "Sunvale"
				hidden_effect = {
					change_culture = ROOT
					change_religion = ROOT
				}
				add_province_modifier = {
					name = newshire_displaced_settlers
					duration = 3650
				}
			}
			custom_tooltip = newshire_headquarters_tooltip
			custom_tooltip = newshire_consequences_tooltip
			hidden_effect = {
				777 = {
					add_province_modifier = {
						name = newshire_headquarters
						duration = -1
					}
				}
				set_country_flag = newshire_opened_door
				set_country_flag = newshire_no_going_back
				set_country_flag = newshire_experimenting_flag
				swap_non_generic_missions = yes
			}
		}
	}
}

newshire_missions_4 = {
	slot = 4
	ai = yes
	generic = no
	potential = {
		tag = B50
	}
	has_country_shield = yes

	B50_into_the_fire = {
		icon = mission_greentide
		required_missions = {
			B50_a_seed_sown
		}
		position = 2
		
		provinces_to_highlight = {
			OR = {
				area = adenica_area
				area = upcreek_area
				area = taran_plains_area
			}
			NOT = { country_or_non_sovereign_subject_holds = ROOT }
		}
		
		trigger = {
			adenica_area = {
				type = all
				country_or_non_sovereign_subject_holds = ROOT
			}
			upcreek_area = {
				type = all
				country_or_non_sovereign_subject_holds = ROOT
			}
			taran_plains_area = {
				type = all
				country_or_non_sovereign_subject_holds = ROOT
			}
		}
		
		effect = {
			silvervord_area = {
				limit = {
					NOT = { is_core = ROOT }
					NOT = { owned_by = ROOT }
				}
				add_permanent_claim = ROOT
			}
			adenica_area = {
				custom_tooltip = displacement_tooltip
				hidden_effect = {
					change_culture = ROOT
					change_religion = ROOT
				}
				add_province_modifier = {
					name = newshire_displaced_settlers
					duration = 3650
				}
			}
			upcreek_area = {
				custom_tooltip = displacement_tooltip
				hidden_effect = {
					change_culture = ROOT
					change_religion = ROOT
				}
				add_province_modifier = {
					name = newshire_displaced_settlers
					duration = 3650
				}
			}
			taran_plains_area = {
				custom_tooltip = displacement_tooltip
				hidden_effect = {
					change_culture = ROOT
					change_religion = ROOT
				}
				add_province_modifier = {
					name = newshire_displaced_settlers
					duration = 3650
				}
			}
		}
	}

	B50_the_northern_farthing = {
		icon = mission_mounted_battle
		required_missions = {
			B50_into_the_fire
		}
		position = 3
		
		provinces_to_highlight = {
			OR = {
				AND = {
					area = silvervord_area
					NOT = { country_or_non_sovereign_subject_holds = ROOT }
				}
				AND = {
					province_id = 756
					NOT = {
						AND = {
							development = 18
							has_trade_building_trigger = yes
						}
					}
				}
			}
		}
		
		trigger = {
			silvervord_area = {
				type = all
				country_or_non_sovereign_subject_holds = ROOT
			}
			756 = {
				development = 18
				has_trade_building_trigger = yes
			}
		}
		
		effect = {
			silvervord_area = {
				custom_tooltip = displacement_tooltip
				hidden_effect = {
					change_culture = ROOT
					change_religion = ROOT
				}
				add_province_modifier = {
					name = newshire_displaced_settlers
					duration = 3650
				}
			}
			756 = {
				change_province_name = "Dustinwall"
				rename_capital = "Dustinwall"
			}
		}
	}

	B50_the_eastern_farthing = {
		icon = mission_heated_battle
		required_missions = {
			B50_the_northern_farthing
			B50_till_the_land
		}
		position = 4
		
		provinces_to_highlight = {
			OR = {
				AND = {
					area = merescker_area
					NOT = { country_or_non_sovereign_subject_holds = ROOT }
				}
				AND = {
					province_id = 787
					NOT = {
						AND = {
							development = 18
							has_trade_building_trigger = yes
						}
					}
				}
			}
		}
		
		trigger = {
			merescker_area = {
				type = all
				country_or_non_sovereign_subject_holds = ROOT
			}
			787 = {
				development = 18
				has_trade_building_trigger = yes
			}
		}
		
		effect = {
			merescker_area = {
				custom_tooltip = displacement_tooltip
				hidden_effect = {
					change_culture = ROOT
					change_religion = ROOT
				}
				add_province_modifier = {
					name = newshire_displaced_settlers
					duration = 3650
				}
			}
			787 = {
				change_province_name = "Second Turnwell"
				rename_capital = "Second Turnwell"
				center_of_trade = 1
			}
			verteben_area = {
				limit = {
					NOT = { is_core = ROOT }
					NOT = { owned_by = ROOT }
				}
				add_permanent_claim = ROOT
			}
			valefort_area = {
				limit = {
					NOT = { is_core = ROOT }
					NOT = { owned_by = ROOT }
				}
				add_permanent_claim = ROOT
			}
			rohibon_area = {
				limit = {
					NOT = { is_core = ROOT }
					NOT = { owned_by = ROOT }
				}
				add_permanent_claim = ROOT
			}
		}
	}

	B50_the_southern_farthing = {
		icon = mission_warrior_gold
		required_missions = {
			B50_the_eastern_farthing
		}
		position = 5
		
		provinces_to_highlight = {
			OR = {
				AND = {
					OR = {
						area = verteben_area
						area = valefort_area
					}
					NOT = { country_or_non_sovereign_subject_holds = ROOT }
				}
				AND = {
					province_id = 781
					NOT = {
						AND = {
							development = 18
							OR = {
								has_production_building_trigger = yes
								trade_goods = gold
							}
						}
					}
				}
			}
		}
		
		trigger = {
			verteben_area = {
				type = all
				country_or_non_sovereign_subject_holds = ROOT
			}
			valefort_area = {
				type = all
				country_or_non_sovereign_subject_holds = ROOT
			}
			781 = {
				development = 18
				OR = {
					has_production_building_trigger = yes
					trade_goods = gold
				}
			}
		}
		
		effect = {
			verteben_area = {
				custom_tooltip = displacement_tooltip
				hidden_effect = {
					change_culture = ROOT
					change_religion = ROOT
				}
				add_province_modifier = {
					name = newshire_displaced_settlers
					duration = 3650
				}
			}
			valefort_area = {
				custom_tooltip = displacement_tooltip
				hidden_effect = {
					change_culture = ROOT
					change_religion = ROOT
				}
				add_province_modifier = {
					name = newshire_displaced_settlers
					duration = 3650
				}
			}
			781 = {
				change_province_name = "Tipney-under-Shield"
				rename_capital = "Tipney-under-Shield"
			}
		}
	}

	B50_things_every_halfling_needs = {
		icon = mission_market
		required_missions = {
			B50_the_southern_farthing
			B50_divert_the_waters
		}
		position = 6
		
		provinces_to_highlight = {
			OR = {
				province_id = 781
				province_id = 756
				province_id = 771
			}
			NOT = {
				AND = {
					owned_by = ROOT
					OR = {
						has_production_building_trigger = yes
						trade_goods = gold
					}
				}
			}
		}
		
		trigger = {
			781 = {
				owned_by = ROOT
				OR = {
					has_production_building_trigger = yes
					trade_goods = gold
				}
			}
			756 = {
				owned_by = ROOT
				OR = {
					has_production_building_trigger = yes
					trade_goods = gold
				}
			}
			771 = {
				owned_by = ROOT
				OR = {
					has_production_building_trigger = yes
					trade_goods = gold
				}
			}
			treasury = 300
		}
		
		effect = {
			add_treasury = -300
			781 = { change_trade_goods = tobacco }
			756 = { change_trade_goods = dyes }
			771 = { change_trade_goods = cloth }
		}
	}

	B50_not_at_home = {
		icon = mission_guarded_market
		required_missions = {
			B50_things_every_halfling_needs
		}
		position = 7
		
		provinces_to_highlight = {
			province_id = 787
			NOT = {
				AND = {
					owned_by = ROOT
					OR = {
						has_production_building_trigger = yes
						trade_goods = gold
					}
				}
			}
		}
		
		trigger = {
			787 = {
				owned_by = ROOT
				OR = {
					has_production_building_trigger = yes
					trade_goods = gold
				}
			}
			OR = {
				has_estate_privilege = estate_burghers_free_enterprise
				has_estate = estate_castonath_patricians
			}
		}
		
		effect = {
			country_event = { id = flavor_newshire.15 }
		}
	}

	B50_why_we_fight = {
		icon = mission_big_house
		required_missions = {
			B50_not_at_home
			B50_remembering_smallknight
		}
		position = 8
		
		provinces_to_highlight = {
			OR = {
				province_id = 780
				province_id = 248
			}
			NOT = { owned_by = ROOT }
		}
		
		trigger = {
			780 = { owned_by = ROOT }
			248 = { owned_by = ROOT }
			mil_power = 150
		}
		
		effect = {
			add_mil_power = -150
			add_country_modifier = {
				name = newshire_mobilising
				duration = 14600
			}
		}
	}

	B50_the_heft_of_the_toolbox = {
		icon = mission_machine_of_war
		required_missions = {
			B50_why_we_fight
		}
		position = 9
		
		trigger = {
			mil_power = 100
			army_professionalism = 0.1
		}
		
		effect = {
			add_mil_power = -100
			add_army_professionalism = -0.05
			add_country_modifier = {
				name = newshire_handyhalflings
				duration = -1
			}
		}
	}

	B50_fortify_the_reaches = {
		icon = mission_magnificent_castle
		required_missions = {
			B50_the_heft_of_the_toolbox
		}
		position = 10
		
		provinces_to_highlight = {
			OR = {
				area = devaced_area
				area = catelsvord_area
				area = cursewood_area
				area = whistlevale_area
			}
			NOT = { country_or_non_sovereign_subject_holds = ROOT }
		}
		
		trigger = {
			devaced_area = {
				type = all
				country_or_non_sovereign_subject_holds = ROOT
			}
			catelsvord_area = {
				type = all
				country_or_non_sovereign_subject_holds = ROOT
			}
			cursewood_area = {
				type = all
				country_or_non_sovereign_subject_holds = ROOT
			}
			whistlevale_area = {
				type = all
				country_or_non_sovereign_subject_holds = ROOT
			}
			treasury = 100
		}
		
		effect = {
			add_treasury = -100
			add_country_modifier = {
				name = newshire_fortify
				duration = 1825
			}
		}
	}
}

newshire_blanks_5 = {
	slot = 5
	ai = yes
	generic = no
	potential = {
		tag = B50
	}
	has_country_shield = yes
}

newshire_missions_5 = {
	slot = 5
	ai = yes
	generic = no
	potential = {
		tag = B50
	}
	has_country_shield = yes

	B50_till_the_land = {
		icon = mission_four_men
		required_missions = {
			B50_into_the_fire
		}
		position = 3
		
		provinces_to_highlight = {
			owned_by = ROOT
			has_terrain = farmlands
			culture = ROOT
			NOT = { development = 15 }
		}
		
		trigger = {
			num_of_owned_provinces_with = {
				value = 3
				has_terrain = farmlands
				culture = ROOT
				development = 15
			}
		}
		
		effect = {
			add_country_modifier = {
				name = newshire_tills
				duration = 3650
			}
			merescker_area = {
				limit = {
					NOT = { is_core = ROOT }
					NOT = { owned_by = ROOT }
				}
				add_permanent_claim = ROOT
			}
			nortmerewood_area = {
				limit = {
					NOT = { is_core = ROOT }
					NOT = { owned_by = ROOT }
				}
				add_permanent_claim = ROOT
			}
			oudmerewood_area = {
				limit = {
					NOT = { is_core = ROOT }
					NOT = { owned_by = ROOT }
				}
				add_permanent_claim = ROOT
			}
		}
	}

	B50_cut_the_trees = {
		icon = mission_four_men
		required_missions = {
			B50_till_the_land
		}
		position = 4
		
		provinces_to_highlight = {
			OR = {
				area = merescker_area
				area = oudmerewood_area
			}
			OR = {
				NOT = { country_or_non_sovereign_subject_holds = ROOT }
				AND = {
					owned_by = ROOT
					has_terrain = woods
					NOT = { has_production_building_trigger = yes }
					NOT = {
						ROOT = {
							num_of_owned_provinces_with = {
								value = 4
								has_terrain = woods
								has_production_building_trigger = yes
								OR = {
									area = merescker_area
									area = oudmerewood_area
								}
							}
						}
					}
				}
			}
		}
		
		trigger = {
			merescker_area = {
				type = all
				country_or_non_sovereign_subject_holds = ROOT
			}
			oudmerewood_area = {
				type = all
				country_or_non_sovereign_subject_holds = ROOT
			}
			num_of_owned_provinces_with = {
				value = 4
				has_terrain = woods
				has_production_building_trigger = yes
				OR = {
					area = merescker_area
					area = oudmerewood_area
				}
			}
		}
		
		effect = {
			merescker_area = {
				add_province_modifier = {
					name = newshire_woodcutting
					duration = -1
				}
				custom_tooltip = grain_production_tooltip
				hidden_effect = {
					if = {
						limit = {
							NOT = {
								OR = {
									trade_goods = damestear
									trade_goods = dyes
									trade_goods = gold
									trade_goods = mithril
									trade_goods = silk
									trade_goods = gems
									trade_goods = livestock
								}
							}
						}
						change_trade_goods = grain
					}
				}
			}
			oudmerewood_area = {
				add_province_modifier = {
					name = newshire_woodcutting
					duration = -1
				}
				custom_tooltip = grain_production_tooltip
				hidden_effect = {
					if = {
						limit = {
							NOT = {
								OR = {
									trade_goods = damestear
									trade_goods = dyes
									trade_goods = gold
									trade_goods = mithril
									trade_goods = silk
									trade_goods = gems
									trade_goods = livestock
								}
							}
						}
						change_trade_goods = grain
					}
				}
			}
		}
	}

	B50_divert_the_waters = {
		icon = mission_four_men
		required_missions = {
			B50_cut_the_trees
		}
		position = 5
		
		provinces_to_highlight = {
			area = nortmerewood_area
			NOT = { country_or_non_sovereign_subject_holds = ROOT }
		}
		
		trigger = {
			nortmerewood_area = {
				type = all
				country_or_non_sovereign_subject_holds = ROOT
			}
			num_of_owned_provinces_with = {
				value = 3
				area = nortmerewood_area
				OR = {
					has_production_building_trigger = yes
					trade_goods = gold
				}
				development = 15
			}
		}
		
		effect = {
			nortmerewood_area = {
				add_province_modifier = {
					name = newshire_woodcutting
					duration = -1
				}
				custom_tooltip = grain_production_tooltip
				hidden_effect = {
					if = {
						limit = {
							NOT = {
								OR = {
									trade_goods = damestear
									trade_goods = dyes
									trade_goods = gold
									trade_goods = mithril
									trade_goods = silk
									trade_goods = gems
									trade_goods = livestock
								}
							}
						}
						change_trade_goods = grain
					}
				}
				if = {
					limit = {
						OR = {
							trade_goods = grain
							trade_goods = livestock
						}
					}
					add_province_modifier = {
						name = newshire_irrigation
						duration = -1
					}
				}
			}
		}
	}

	B50_break_the_rocks = {
		icon = mission_four_men
		required_missions = {
			B50_divert_the_waters
		}
		position = 6
		
		provinces_to_highlight = {
			owned_by = ROOT
			has_terrain = grasslands
		}
		
		trigger = {
			num_of_owned_provinces_with = {
				value = 8
				region = west_castanor_region
				has_terrain = grasslands
			}
			num_of_owned_provinces_with = {
				value = 3
				has_terrain = grasslands
				has_building = farm_estate
			}
			num_of_owned_provinces_with = {
				value = 8
				has_terrain = grasslands
				infantry_in_province = 1
			}
		}
		
		effect = {
			add_country_modifier = {
				name = newshire_rockbreaking
				duration = -1
			}
		}
	}

	B50_remembering_smallknight = {
		icon = mission_dancing_with_dead
		required_missions = {
			B50_break_the_rocks
		}
		position = 7
		
		provinces_to_highlight = {
			province_id = 756
			NOT = {
				AND = {
					owned_by = ROOT
					has_tax_building_trigger = yes
					base_manpower = 8
				}
			}
		}
		
		trigger = {
			756 = {
				owned_by = ROOT
				has_tax_building_trigger = yes
				base_manpower = 8
			}
		}
		
		effect = {
			add_country_modifier = {
				name = newshire_monument
				duration = -1
			}
		}
	}

	B50_the_cleave_of_the_hoe = {
		icon = mission_rice_farming
		required_missions = {
			B50_why_we_fight
		}
		position = 9
		
		trigger = {
			mil_power = 100
			army_tradition = 25
		}
		
		effect = {
			add_mil_power = -100
			add_country_modifier = {
				name = newshire_greenhalflings
				duration = -1
			}
		}
	}

	B50_the_last_lines = {
		icon = mission_female_throne
		required_missions = {
			B50_the_heft_of_the_toolbox
			B50_the_cleave_of_the_hoe
		}
		position = 10
		
		provinces_to_highlight = {
			owned_by = ROOT
			has_terrain = farmlands
			NOT = { has_manpower_building_trigger = yes }
		}
		
		trigger = {
			num_of_owned_provinces_with = {
				value = 4
				has_terrain = farmlands
				has_manpower_building_trigger = yes
			}
		}
		
		effect = {
			add_country_modifier = {
				name = newshire_gentlehalflings
				duration = -1
			}
		}
	}

    B50_mean_green_fighting_machines = {
        icon = mission_orc_chillin
        required_missions = { 
            B50_the_last_lines
        }
        position = 11
        provinces_to_highlight = {
            OR = {
                province_id = 248
                province_id = 780
            }
        }
        trigger = {
            custom_trigger_tooltip = {
                tooltip = newshire_nice_orcs_tooltip
                NOT = { 
                    OR = {
                        has_country_modifier = racial_pop_orcish_purge
                        has_country_modifier = racial_pop_orcish_expulsion
                    }
                }
            }
            248 = {
                owned_by = ROOT
                fort_level = 2
            }
            780 = {
                owned_by = ROOT
                fort_level = 2
            }
            any_owned_province = {
                has_orcish_minority_trigger = yes
            }
            dip_power = 100
        }
        effect = {
            add_dip_power = -100
            custom_tooltip = newshire_modifier_loss_tooltip
            hidden_effect = {
                remove_country_modifier = newshire_handyhalflings
                remove_country_modifier = newshire_greenhalflings
                remove_country_modifier = newshire_gentlehalflings
            }
            add_country_modifier = {
                name = newshire_combined_hands
                duration = -1
            }
            custom_tooltip = newshire_combined_hands_tooltip
            custom_tooltip = newshire_orcs_tooltip
            hidden_effect = {
                every_owned_province = {
                    if = {
                        limit = { has_orcish_minority_trigger = yes }
                        remove_orcish_minority_size_effect = yes
                    }
                }
                248 = {
                    add_orcish_minority_size_effect = yes
                    add_orcish_minority_size_effect = yes
                }
                780 = {
                    add_orcish_minority_size_effect = yes
                    add_orcish_minority_size_effect = yes
                }
            }
        }
    }
}

newshire_missions_2b = {
	slot = 2
	ai = yes
	generic = no
	potential = {
		tag = B50
		has_country_flag = newshire_no_going_back
	}
	has_country_shield = yes

	B50_peas_of_mind = {
		icon = mission_alone_in_the_forest
		required_missions = {
			B50_burst_into_bloom
		}
		position = 11
		
		provinces_to_highlight = {
			OR = {
				area = cursewood_area
				area = whistlevale_area
			}
			NOT = { country_or_non_sovereign_subject_holds = ROOT }
		}
		
		trigger = {
			cursewood_area = {
				type = all
				country_or_non_sovereign_subject_holds = ROOT
			}
			whistlevale_area = {
				type = all
				country_or_non_sovereign_subject_holds = ROOT
			}
			num_of_owned_provinces_with = {
				value = 2
				OR = {
					area = cursewood_area
					area = whistlevale_area
				}
				has_manufactory_trigger = yes
			}
		}
		
		effect = {
			cursewood_area = {
				add_province_modifier = {
					name = newshire_static_peapods
					duration = -1
				}
			}
			whistlevale_area = {
				add_province_modifier = {
					name = newshire_static_peapods
					duration = -1
				}
			}
		}
	}

	B50_mobilise_the_pods = {
		icon = mission_artificier_experience
		required_missions = {
			B50_peas_of_mind
		}
		position = 12
		
		trigger = {
			mil_power = 150
			court_mage = 2
			army_reformer = 1
		}
		
		effect = {
			add_mil_power = -150
			unlock_merc_company = {
				merc_company = merc_newshire_peapods
				free_merc = yes
			}
		}
	}

	B50_there_and_back_again = {
		icon = mission_dual_diplomacy
		required_missions = {
			B50_mobilise_the_pods
		}
		position = 13
		
		trigger = {
			A97 = {
				exists = yes
				is_at_war = yes
			}
		}
		
		effect = {
			add_historical_friend = A97
			country_event = { id = flavor_newshire.17 }
		}
	}

	B50_just_around_the_riverbend = {
		icon = mission_white_tower
		required_missions = {
			B50_on_the_offensive
		}
		position = 14
		
		provinces_to_highlight = {
			OR = {
				area = nortmere_area
				area = lower_nath_area
			}
			NOT = { country_or_non_sovereign_subject_holds = ROOT }
		}
		
		trigger = {
			nortmere_area = {
				type = all
				country_or_non_sovereign_subject_holds = ROOT
			}
			lower_nath_area = {
				type = all
				country_or_non_sovereign_subject_holds = ROOT
			}
			adm_power = 150
		}
		
		effect = {
			add_adm_power = -150
			nortmere_area = {
				custom_tooltip = displacement_tooltip
				hidden_effect = {	
					change_culture = ROOT
					change_religion = ROOT
				}
				add_province_modifier = {
					name = newshire_displaced_settlers
					duration = 3650
				}
			}
			lower_nath_area = {
				custom_tooltip = displacement_tooltip
				hidden_effect = {	
					change_culture = ROOT
					change_religion = ROOT
				}
				add_province_modifier = {
					name = newshire_displaced_settlers
					duration = 3650
				}
			}
		}
	}
}

newshire_missions_3b = {
	slot = 3
	ai = yes
	generic = no
	potential = {
		tag = B50
		has_country_flag = newshire_no_going_back
	}
	has_country_shield = yes

	B50_uncrackable_nuts = {
		icon = mission_science
		required_missions = {
			B50_burst_into_bloom
		}
		position = 11
		
		provinces_to_highlight = {
			OR = {	
				has_province_modifier = newshire_transmuted_lands
				has_province_modifier = newshire_experimental_lands
			}
			owned_by = ROOT
		}
		
		trigger = {
			num_of_owned_provinces_with = {
				value = 3
				has_province_modifier = newshire_transmuted_lands
			}
		}
		
		effect = {
			unlock_merc_company = {
				merc_company = merc_newshire_wallnuts
				free_merc = yes
			}
			hidden_effect = {
				777 = { add_province_triggered_modifier = newshire_squashkin_pulse }
			}
		}
	}

	B50_on_the_offensive = {
		icon = mission_face_off
		required_missions = {
			B50_mobilise_the_pods
			B50_uncrackable_nuts
			B50_increditable_vegetable
		}
		position = 13
		
		trigger = {
			if = {
				limit = { NOT = { has_country_flag = newshire_won_consolidation } }
				custom_trigger_tooltip = {
					tooltip = newshire_escann_wars_tooltip
					has_global_flag = escanni_wars_global_flag
				}
				army_size_percentage = 0.75
				stability = 2
			}
		}
		
		effect = {
			add_country_modifier = {
				name = newshire_nationalistic_rush
				duration = 3650
			}
		}
	}

	B50_garden_warfare = {
		icon = mission_sinister_castle
		required_missions = {
			B50_on_the_offensive
		}
		position = 14
		
		provinces_to_highlight = {
			OR = {
				area = burnoll_area
				area = themin_area
				area = southgate_area
			}
			NOT = { controlled_by = ROOT }
		}
		
		trigger = {
			OR = {
				AND = {
					burnoll_area = {
						type = all
						controlled_by = ROOT
					}
					themin_area = {
						type = all
						controlled_by = ROOT
					}
					southgate_area = {
						type = all
						controlled_by = ROOT
					}
				}
				war_with = B54
				any_war_enemy_country = {
					has_country_modifier = undead_military
				}
			}
		}
		
		effect = {
			add_country_modifier = {
				name = newshire_pvz
				duration = 9125
			}
			define_advisor = {
				type = fortification_expert
				name = "Davin Crazedfoot"
				skill = 3
				culture = newfoot_halfling
				discount = yes
			}
		}
	}

	B50_a_city_of_dreams = { #call the event "big dreamers" instead of "the fifth farthing"
		icon = mission_magnificent_castle
		required_missions = {
			B50_just_around_the_riverbend
			B50_garden_warfare
			B50_vernhamward_march
		}
		position = 15
		
		provinces_to_highlight = {
			area = castonath_area
			NOT = { country_or_non_sovereign_subject_holds = ROOT }
		}
		
		trigger = {
			castonath_area = {
				type = all
				country_or_non_sovereign_subject_holds = ROOT
			}
			num_of_owned_provinces_with = {
				value = 2
				area = castonath_area
				has_manufactory_trigger = yes
			}
		}
		
		effect = {
			hidden_effect = {
				country_event = { id = flavor_newshire.20 }
			}
			custom_tooltip = newshire_scheming_tooltip
		}
	}
}

newshire_missions_4b = {
	slot = 4
	ai = yes
	generic = no
	potential = {
		tag = B50
		has_country_flag = newshire_no_going_back
	}
	has_country_shield = yes

	B50_the_squashkin_arrive = {
		icon = mission_burning_castle
		required_missions = {
			B50_burst_into_bloom
			B50_fortify_the_reaches
		}
		position = 11
		
		provinces_to_highlight = {
			province_id = 771
			NOT = {
				AND = {
					owned_by = ROOT
					fort_level = 2
					artillery_in_province = 3
				}
			}
		}
		
		trigger = {
			771 = {
				owned_by = ROOT
				fort_level = 2
				artillery_in_province = 3
			}
		}
		
		effect = {
			unlock_merc_company = {
				merc_company = merc_newshire_squashkin
				free_merc = yes
			}
			hidden_effect = {
				777 = { add_province_triggered_modifier = newshire_squashkin_pulse }
			}
			country_event = { id = flavor_newshire.21 }
		}
	}

	B50_increditable_vegetable = {
		icon = mission_green_village
		required_missions = {
			B50_the_squashkin_arrive
			B50_mean_green_fighting_machines
		}
		position = 12
		
		provinces_to_highlight = {
			province_id = 771
			NOT = {
				AND = {
					is_prosperous = yes
					development = 30
				}
			}
		}
		
		trigger = {
			is_at_war = no
			771 = {
				is_prosperous = yes
				development = 30
			}
		}
		
		effect = {
			country_event = { id = flavor_newshire.22 }
		}
	}

	B50_vernhamward_march = {
		icon = mission_misty_forest
		required_missions = {
			B50_on_the_offensive
		}
		position = 14
		
		provinces_to_highlight = {
			OR = {
				AND = {
					OR = {
						area = vernham_area
						area = oudeben_area
					}
					NOT = { country_or_non_sovereign_subject_holds = ROOT }
				}
				AND = {
					province_id = 800
					NOT = { development = 20 }
				}
			}
		}
		
		trigger = {
			vernham_area = {
				type = all
				country_or_non_sovereign_subject_holds = ROOT
			}
			oudeben_area = {
				type = all
				country_or_non_sovereign_subject_holds = ROOT
			}
			800 = {
				development = 20
			}
		}
		
		effect = {
			vernham_area = {
				custom_tooltip = displacement_tooltip
				hidden_effect = {	
					change_culture = ROOT
					change_religion = ROOT
				}
				add_province_modifier = {
					name = newshire_displaced_settlers
					duration = 3650
				}
			}
			oudeben_area = {
				custom_tooltip = displacement_tooltip
				hidden_effect = {	
					change_culture = ROOT
					change_religion = ROOT
				}
				add_province_modifier = {
					name = newshire_displaced_settlers
					duration = 3650
				}
			}
		}
	}
}

newshire_missions_2c = {
	slot = 2
	ai = yes
	generic = no
	potential = {
		tag = B50
		has_country_flag = newshire_bad_dream
	}
	has_country_shield = yes

	B50_tear_down_the_walls = {
		icon = mission_destroyed_city
		required_missions = {
			B50_the_last_free_fair
		}
		position = 17
		
		provinces_to_highlight = {
			area = castonath_area
			NOT = {
				AND = {
					base_tax = 13
					base_production = 13
					base_manpower = 13
					is_state = yes
					country_or_non_sovereign_subject_holds = ROOT
				}
			}
		}
		
		trigger = {
			castonath_area = {
				type = all
				custom_trigger_tooltip = {
					tooltip = newshire_castonath_thirteen_tooltip
					base_tax = 13
					base_production = 13
					base_manpower = 13
				}
				is_state = yes
				country_or_non_sovereign_subject_holds = ROOT
			}
		}
		
		effect = {
			castonath_area = {
				add_base_tax = -4
				add_base_production = -4
				add_base_manpower = -4
				add_province_modifier = {
					name = newshire_castonath_riots
					duration = 3650
				}
			}
			silvervord_area = {
				add_base_tax = 2
				add_base_production = 2
				add_base_manpower = 2
			}
			rohibon_area = {
				add_base_tax = 2
				add_base_production = 2
				add_base_manpower = 2
			}
		}
	}

	B50_no_longer_dreaming = {
		icon = mission_moon_moon
		required_missions = {
			B50_tear_down_the_walls
		}
		position = 18
		
		provinces_to_highlight = {
			area = castonath_area
			NOT = {
				AND = {
					base_tax = 9
					base_production = 9
					base_manpower = 9
					is_state = yes
					country_or_non_sovereign_subject_holds = ROOT
					NOT = { unrest = 0 }
					NOT = { local_autonomy = 25 }
					NOT = { has_province_modifier = newshire_castonath_riots }
				}
			}
		}
		
		trigger = {
			castonath_area = {
				type = all
				custom_trigger_tooltip = {
					tooltip = newshire_castonath_nine_tooltip
					base_tax = 9
					base_production = 9
					base_manpower = 9
				}
				is_state = yes
				country_or_non_sovereign_subject_holds = ROOT
				NOT = { unrest = 0 }
				NOT = { local_autonomy = 25 }
				NOT = { has_province_modifier = newshire_castonath_riots }
			}
		}
		
		effect = {
			castonath_area = {
				add_base_tax = -4
				add_base_production = -4
				add_base_manpower = -4
				custom_tooltip = displacement_tooltip
				hidden_effect = {
					change_culture = ROOT
					change_religion = ROOT
				}
			}
			verteben_area = {
				add_base_tax = 2
				add_base_production = 2
				add_base_manpower = 2
			}
			merescker_area = {
				add_base_tax = 2
				add_base_production = 2
				add_base_manpower = 2
			}
		}
	}

	B50_let_the_wild_take_over = {
		icon = mission_transmutation
		required_missions = {
			B50_no_longer_dreaming
			B50_all_flesh_is_grass
		}
		position = 19
		
		provinces_to_highlight = {
			area = castonath_area
			development = 16
		}
		
		trigger = {
			castonath_area = {
				type = all
				NOT = { development = 16 }
			}
			adm_power = 200
			dip_power = 200
			mil_power = 200
		}
		
		effect = {
			add_adm_power = -200
			add_dip_power = -200
			add_mil_power = -200
			castonath_area = {
				add_province_modifier = {
					name = newshire_creeping_vines
					duration = -1
				}
			}
			add_country_modifier = {
				name = newshire_wildernath
				duration = -1
			}
			custom_tooltip = add_magic_study_modifier_20_tt
			update_magic_study_experience_modifier = { value = 20 }
			castonath_area = {
				remove_province_modifier = castonath_verdancy
			}
		}
	}

	B50_step_into_the_sun = {
		icon = mission_sunset
		required_missions = {
			B50_let_the_wild_take_over
		}
		position = 20
		
		trigger = {
			all_owned_province = {
				NOT = {
					has_province_modifier = mild_winter
					has_province_modifier = normal_winter
					has_province_modifier = severe_winter
				}
			}
			any_owned_province = {
				has_human_minority_trigger = yes
			}
		}
		
		effect = {
			largest_decrease_of_human_tolerance_effect = yes
			custom_tooltip = newshire_sunwatchers_tooltip
			unlock_merc_company = {
				merc_company = merc_newshire_sunwatchers
				free_merc = yes
			}
			hidden_effect = {
				777 = { add_province_triggered_modifier = newshire_sunwatchers_pulse }
			}
		}
	}
}

newshire_missions_3c = {
	slot = 3
	ai = yes
	generic = no
	potential = {
		tag = B50
		has_country_flag = newshire_bad_dream
	}
	has_country_shield = yes

	B50_the_last_free_fair = {
		icon = mission_shady_encounter
		required_missions = {
			B50_a_city_of_dreams
		}
		position = 16
		
		trigger = {
			custom_trigger_tooltip = {
				tooltip = newshire_won_consolidation_tooltip
				has_country_flag = newshire_won_consolidation
			}
			power_projection = 50
		}
		
		effect = {
			country_event = { id = flavor_newshire.25 }
		}
	}

	B50_the_festival_of_bounty = {
		icon = mission_feast
		required_missions = {
			B50_the_last_free_fair
		}
		position = 17
		
		trigger = {
			NOT = { has_country_modifier = newshire_a_growing_capital }
			treasury = 300
		}
		
		effect = {
			add_treasury = -300
			country_event = { id = flavor_newshire.26 }
		}
	}

	B50_all_flesh_is_grass = {
		icon = mission_murder
		required_missions = {
			B50_the_festival_of_bounty
		}
		position = 18
		
		trigger = {
			custom_trigger_tooltip = {
				tooltip = newshire_verdancy_complete_tooltip
				has_country_flag = newshire_verdancy_complete
			}
			NOT = { unrest = 1 }
			NOT = { average_autonomy = 25 }
		}
		
		effect = {
			add_adm_power = 100
			add_dip_power = 100
			add_mil_power = 100
		}
	}
}

newshire_missions_4c = {
	slot = 4
	ai = yes
	generic = no
	potential = {
		tag = B50
		has_country_flag = newshire_bad_dream
	}
	has_country_shield = yes

	B50_listen_closely = {
		icon = mission_whisper
		required_missions = {
			B50_the_last_free_fair
		}
		position = 17
		
		provinces_to_highlight = {
			OR = {
				AND = {
					OR = {
						region = south_castanor_region
						region = inner_castanor_region
					}
					NOT = {
						area = burnoll_area
						area = themin_area
						area = southgate_area
					}
					NOT = { owned_by = ROOT }
				}
				AND = {
					OR = {
						area = burnoll_area
						area = themin_area
						area = southgate_area
					}
					NOT = { country_or_non_sovereign_subject_holds = ROOT }
				}
			}
		}
		
		trigger = {
			num_of_owned_provinces_with = {
				value = 40
				OR = {
					region = south_castanor_region
					region = inner_castanor_region
				}
				NOT = {
					area = burnoll_area
					area = themin_area
					area = southgate_area
				}
			}
			burnoll_area = {
				type = all
				country_or_non_sovereign_subject_holds = ROOT
			}
			themin_area = {
				type = all
				country_or_non_sovereign_subject_holds = ROOT
			}
			southgate_area  = {
				type = all
				country_or_non_sovereign_subject_holds = ROOT
			}
		}
		
		effect = {
			burnoll_area = {
				custom_tooltip = displacement_tooltip
				hidden_effect = {	
					change_culture = ROOT
					change_religion = ROOT
				}
				add_province_modifier = {
					name = newshire_displaced_settlers
					duration = 3650
				}
			}
			themin_area = {
				custom_tooltip = displacement_tooltip
				hidden_effect = {	
					change_culture = ROOT
					change_religion = ROOT
				}
				add_province_modifier = {
					name = newshire_displaced_settlers
					duration = 3650
				}
			}
			southgate_area = {
				custom_tooltip = displacement_tooltip
				hidden_effect = {	
					change_culture = ROOT
					change_religion = ROOT
				}
				add_province_modifier = {
					name = newshire_displaced_settlers
					duration = 3650
				}
			}
		}
	}

	B50_seeds_of_stone = {
		icon = mission_magic_tower
		required_missions = {
			B50_listen_closely
		}
		position = 18
		
		provinces_to_highlight = {
			OR = {
				region = south_castanor_region
				region = inner_castanor_region
			}
			owned_by = ROOT
			has_building = mage_tower
		}
		
		trigger = {
			num_of_owned_provinces_with = {
				value = 8
				OR = {
					region = south_castanor_region
					region = inner_castanor_region
				}
				has_building = mage_tower
			}
		}
		
		effect = {
			south_castanor_region = {
				limit = { country_or_non_sovereign_subject_holds = ROOT }
				add_province_modifier = {
					name = newshire_lighthouse
					duration = -1
				}
			}
			inner_castanor_region = {
				limit = { country_or_non_sovereign_subject_holds = ROOT }
				add_province_modifier = {
					name = newshire_lighthouse
					duration = -1
				}
			}
		}
	}

	B50_spring_eternal = {
		icon = mission_delighted_mage
		required_missions = {
			B50_all_flesh_is_grass
			B50_seeds_of_stone
		}
		position = 19
		
		trigger = {
			ruler_age = 50
			monthly_adm = 10
			monthly_dip = 10
			monthly_mil = 10
			court_mage = 5
			NOT = { has_estate_privilege = estate_mages_experimental_lands }
		}
		
		effect = {
			custom_tooltip = mage_killed_tooltip
			inner_castanor_region = {
				limit = { owned_by = ROOT }
				add_devastation = 25
			}
			south_castanor_region = {
				limit = { owned_by = ROOT }
				add_devastation = 25
			}
			add_country_modifier = {
				name = newshire_experiment_reaction
				duration = 9125
			}
			custom_tooltip = vivomantic_upgrade_a
			hidden_effect = {
				kill_advisor = court_mage
				clr_country_flag = newshire_experimenting_flag
				set_country_flag = vivomantic_mastery_flag
			}
		}
	}

	B50_seven_colours = {
		icon = mission_star_comet
		required_missions = {
			B50_spring_eternal
		}
		position = 20
		
		provinces_to_highlight = {
			OR = {
				region = south_castanor_region
				region = inner_castanor_region
				region = west_castanor_region
			}
			NOT = { country_or_non_sovereign_subject_holds = ROOT }
		}
		
		trigger = {
			south_castanor_region = {
				type = all
				country_or_non_sovereign_subject_holds = ROOT
			}
			west_castanor_region = {
				type = all
				country_or_non_sovereign_subject_holds = ROOT
			}
			inner_castanor_region = {
				type = all
				country_or_non_sovereign_subject_holds = ROOT
			}
			NOT = { has_estate_privilege = estate_mages_vivomantic_mastery }
		}
		
		effect = {
			custom_tooltip = newshire_transmutation_final_tooltip
			custom_tooltip = vivomantic_upgrade_b
			hidden_effect = {
				country_event = { id = flavor_newshire.29 }
				clr_country_flag = vivomantic_mastery_flag
				set_country_flag = newshire_growing_strong_flag
				every_owned_province = {
					limit = { has_province_modifier = newshire_transmuted_lands }
					remove_province_modifier = newshire_transmuted_lands
					add_province_modifier = {
						name = newshire_vivomantic_mastery
						duration = -1
					}
				}
			}
		}
	}
}
