
#Orlghelovar		designed and coded by Wagentzu
#1 Part, Rebuilding a foundation for future growth
orlghelovar_1p2s = {
	slot = 2
	generic = no
	ai = yes
	has_country_shield = yes
	potential = {
		OR = {
			tag = I12
			AND = {
				tag = I24
				was_tag = I12
			}
		}
	}

	orlghelovar_recruit_great_minds = {
		icon = all_bases_covered
		position = 1
		
		trigger = {
			has_mil_advisor_2 = yes
			has_adm_advisor_2 = yes
			has_dip_advisor_2 = yes
		}
		
		effect = {
			add_country_modifier = { name = orlghelovar_early_growth duration = 9125 }
		}
	}
	
	orlghelovar_expand_production = {
		icon = mission_great_trading_houses
		position = 2
		required_missions = {
			orlghelovar_recruit_great_minds
		}
		
		trigger = {
			num_of_owned_provinces_with = {
				value = 5
				has_production_building_trigger = yes
			}
		}
		
		effect = {
			random_owned_province = {
			limit = { has_building = workshop }
			add_base_production = 1
			}
		
			random_owned_province = {
			limit = { has_building = workshop }
			add_base_production = 1
			}
		
			random_owned_province = {
			limit = { has_building = workshop }
			add_base_production = 1
			}
		
			random_owned_province = {
			limit = { has_building = workshop }
			add_base_production = 1
			}
		
			random_owned_province = {
			limit = { has_building = workshop }
			add_base_production = 1
			}
		}
	}
	
	orlghelovar_not_so_britle_anymore = {
		icon = mission_great_wall
		position = 3
		required_missions = {
			orlghelovar_expand_production
		}
		
		provinces_to_highlight = {
			province_id = 4238
		}
		
		trigger = {
			4238 = {
				owned_by = ROOT
				fort_level = 2
				has_production_building_trigger = yes
				development = 40
				hold_condition = { Repaired = yes }
			}
		}
		
		effect = {
			define_advisor = {
				type = fortification_expert
				skill = 1
				culture = cobalt_dwarf
				religion = ancestor_worship
				discount = yes
			}
		}
	}
	
	orlghelovar_restore_the_glassworks = {
		icon = mission_colonial
		position = 4
		required_missions = {
			orlghelovar_not_so_britle_anymore
		}
		
		provinces_to_highlight = {
			province_id = 4238
		}
		
		trigger = {
			4238 = {
				has_dwarven_hold_3 = yes
			}
		}
		
		effect = {
			4238 = {
				add_province_modifier = { name = orlghelovar_glasslords1 duration = -1 }
				set_province_flag = orlghelovar_glass_hold
				if = {
					limit = { NOT = { trade_goods = glass } }
					change_trade_goods = glass
				}
			}
		}
	}
}
orlghelovar_1p1s = {
	slot = 1
	generic = no
	ai = yes
	has_country_shield = yes
	potential = {
		OR = {
			tag = I12
			AND = {
				tag = I24
				was_tag = I12
			}
		}
	}
	
	orlghelovar_cobalt_not_only_in_name = {
		icon = mission_sw_torquoise_mining
		position = 3
		required_missions = {
			orlghelovar_expand_production
		}
		
		provinces_to_highlight = {
			province_id = 2939
		}
		
		trigger = {
			2939 = {
				base_production = 5
				has_production_building_trigger = yes
			}
		}
		
		effect = {
			2939 = {
				add_province_modifier = {
					name = orlghelovar_early_cobalt_mining
					duration = 9125
				}
			}
		}
	}
	
	orlghelovar_combinations_of_glass = {
		icon = mission_dominate_persian_gulf
		position = 4
		required_missions = {
			orlghelovar_cobalt_not_only_in_name
		}
		
		trigger = {
			num_of_owned_provinces_with = {
			value = 1
			trade_goods = glass
			base_production = 20
			}
		}
		
		effect = {
			country_event = { id = flavor_orlghelovar.3 }
		}
	}
}
#right side of the first part
orlghelovar_1p4s = {
	slot = 4
	generic = no
	ai = yes
	has_country_shield = yes
	potential = {
		OR = {
			tag = I12
			AND = {
				tag = I24
				was_tag = I12
			}
		}
	}

	orlghelovar_crystal_experts = {
		icon = mission_rb_inland_india
		position = 1
		
		provinces_to_highlight = {
			province_id = 4093
		}
		
		trigger = {
			4093 = {
				owned_by = ROOT
				hold_condition = { Repaired = yes }
			}
		}
		
		effect = {
			shazstundihr_area = {
				limit = {
					NOT = { is_core = ROOT }
					NOT = { owned_by = ROOT }
				}
				add_permanent_claim = ROOT
			}
			4093 = {
				change_trade_goods = gems
			}
		}
	}
	
	orlghelovar_marble_experts = {
		icon = control_the_means_of_transaction
		position = 2
		required_missions = {
			orlghelovar_crystal_experts
		}
		
		provinces_to_highlight = {
			province_id = 2942
		}
		
		trigger = {
			2942 = {
				owned_by = ROOT
				hold_condition = { Repaired = yes }
			}
		}
		
		effect = {
			add_prestige = 10
			add_dip_power = 50
		}
	}
	
	orlghelovar_stabilze_our_reign = {
		icon = ansbach_succession
		position = 3
		required_missions = {
			orlghelovar_marble_experts
		}
		
		provinces_to_highlight = {
			province_id = 4093
		}
		
		trigger = {
			4093 = {
				owned_by = ROOT
				has_production_building_trigger = yes
				development = 40
			}
		}
		
		effect = {
			add_stability_or_adm_power = yes
			add_adm_power = 50
		}
	}
	
	orlghelovar_new_trading_partners = {
		icon = catholic_confraternity
		position = 4
		required_missions = {
			orlghelovar_stabilze_our_reign
			orlghelovar_reclaiming_our_name
			orlghelovar_first_steps
		}

		trigger = {
			if = {
				limit = {
					any_known_country = {
						capital_scope = {
							superregion = bulwar_superregion
						}
						has_country_modifier = human_administration
					}
				}
				any_known_country = {
					capital_scope = {
						superregion = bulwar_superregion
					}
					has_country_modifier = human_administration
					has_opinion = {
						who = ROOT
						value = 80
					}
				}
			}
			if = {
				limit = {
					any_known_country = {
						capital_scope = {
							superregion = bulwar_superregion
						}
						has_country_modifier = elven_administration
					}
				}
				any_known_country = {
					capital_scope = {
						superregion = bulwar_superregion
					}
					has_country_modifier = elven_administration
					has_opinion = {
						who = ROOT
						value = 80
					}
				}
			}
		}
		
		effect = {
			1312 = { add_trade_modifier = { who = ROOT duration = -1 power = 25 key = ORLGHELOVAR_TRADE_AGREEMENTS } }
			define_advisor = {
				type = trader
				skill = 1
				culture = bahari
				religion = bulwari_sun_cult
				discount = yes
			}
			custom_tooltip = orlghelovar_bulwar_discovery_tt
			hidden_effect = {
				every_known_country = {
					limit = { capital_scope = { superregion = bulwar_superregion } }
					4238 = { discover_country = PREV }
					2942 = { discover_country = PREV }
				}
				bahar_region = {
					discover_country = ROOT
					1312 = { discover_country = ROOT }
				}
			}
		}
	}
}
orlghelovar_1p5s = {
	slot = 5
	generic = no
	ai = yes
	has_country_shield = yes
	potential = {
		OR = {
			tag = I12
			AND = {
				tag = I24
				was_tag = I12
			}
		}
	}
	
	orlghelovar_first_steps = {
		icon = mission_break_sicily
		position = 3
		required_missions = {
			orlghelovar_marble_experts
		}
		trigger = {
			2942 = {
				has_building = marketplace
				development = 40
			}
		}
		
		effect = {
			add_country_modifier = { name = orlghelovar_first_steps duration = 9125 }
			define_advisor = {
				type = diplomat
				skill = 1
				culture = cobalt_dwarf
				religion = ancestor_worship
				discount = yes
			}
			bahar_region = {
				discover_country = I12
			}
		}
	}
	
	orlghelovar_impress_bulwar_thinkers = {
		icon = mission_dharma_mission_the_riches_of_india
		position = 4
		required_missions = {
			orlghelovar_first_steps
		}
		trigger = { 
			has_estate_privilege = estate_burghers_patronage_of_the_arts
			prestige = 50
			estate_loyalty = {
				estate = estate_burghers
				loyalty = 60
			}
			estate_influence = {
				estate = estate_burghers
				influence = 60
			}
		}
		
		effect = {
			country_event = { id = flavor_orlghelovar.4 }
		}
	}
}
orlghelovar_1p3s = {
	slot = 3
	generic = no
	ai = yes
	has_country_shield = yes
	potential = {
		OR = {
			tag = I12
			AND = {
				tag = I24
				was_tag = I12
			}
		}
	}
	
	orlghelovar_reclaiming_our_name = {
		icon = mission_unite_home_region
		position = 3
		
		trigger = {
			num_of_provinces_in_states = 15
			num_of_owned_provinces_with = {
				value = 5
				has_manpower_building_trigger = yes
			}
		}
		
		effect = {
			add_country_modifier = { name = orlghelovar_reclaiming_our_name duration = 7300 }
			add_treasury = 150
		}
	}
	
	orlghelovar_resurgence_of_a_legacy = {
		icon = mission_empire
		position = 5
		required_missions = {
			orlghelovar_combinations_of_glass
			orlghelovar_restore_the_glassworks
			orlghelovar_new_trading_partners
			orlghelovar_impress_bulwar_thinkers
		}
		
		trigger = {
			treasury = 500
			OR = {
				has_country_modifier = racial_pop_goblin_purge
				has_country_modifier = racial_pop_goblin_expulsion
			}
			any_ally = {
				capital_scope = {
					superregion = bulwar_superregion
				}
				NOT = {
					has_country_modifier = goblin_administration
				}
			}
		}
		
		effect = {
			country_event = { id = flavor_orlghelovar.1 }
		}
	}
}
#Part 2, leading up to reasearch/outside conquest of Bahar
orlghelovar_2p5s = {
	slot = 5
	generic = no
	ai = yes
	has_country_shield = yes
	potential = {
		OR = {
			tag = I12
			AND = {
				tag = I24
				was_tag = I12
			}
		}
		has_country_flag = orlghelovar_1p_done
	}
	
	orlghelovar_diamonds_and_glass = {
		icon = mission_frozen_star
		position = 6
		required_missions = {
			orlghelovar_resurgence_of_a_legacy
		}
		
		trigger = {
			if = {
				limit = { NOT = { has_dlc = "Dharma" } }
				treasury = 1000
			}
			4093 = {
				development = 50
				if = {
					limit = { has_dlc = "Dharma" }
					province_has_center_of_trade_of_level = 3
				}
			}
			adm_power = 100
			dip_power = 100
			mil_power = 100
		}
		
		effect = {
			if = {
				limit = { NOT = { has_dlc = "Dharma" } }
				add_treasury = -1000
			}
			add_adm_power = -100
			add_mil_power = -100
			add_dip_power = -100
			country_event = { id = flavor_orlghelovar.5 }
		}
	}
	
	orlghelovar_increase_demand_for_diamonds = {
		icon = mission_establish_mint_towns
		position = 7
		required_missions = {
			orlghelovar_diamonds_and_glass
		}
		
		provinces_to_highlight = {
			OR = {
				province_id = 2950
				province_id = 2948
				province_id = 2947
			}
			NOT = {
				AND = {
					development = 10
					OR = {
						has_production_building_trigger = yes
						has_tax_building_trigger = yes
					}
				}
			}
		}
		
		trigger = {
			2950 = {
				development = 10
				OR = {
					has_production_building_trigger = yes
					has_tax_building_trigger = yes
				}
			}
			2948 = {
				development = 10
				OR = {
					has_production_building_trigger = yes
					has_tax_building_trigger = yes
				}
			}
			2947 = {
				development = 10
				OR = {
					has_production_building_trigger = yes
					has_tax_building_trigger = yes
				}
			}
		}
		
		effect = {
			2950 = {
				add_permanent_province_modifier = {
					name = orlghelovar_incentivised_strip_mining
					duration = -1
				}
			}
			2948 = {
				add_permanent_province_modifier = {
					name = orlghelovar_incentivised_strip_mining
					duration = -1
				}
			}
			2947 = {
				add_permanent_province_modifier = {
					name = orlghelovar_incentivised_strip_mining
					duration = -1
				}
			}
		}
	}
	
	orlghelovar_diamond_quarry = {
		icon = mission_riches_of_golconda
		position = 8
		required_missions = {
			orlghelovar_increase_demand_for_diamonds
		}
		
		provinces_to_highlight = {
			province_id = 2948
		}
		
		trigger = {
			2948 = {
				base_production = 10
				has_manpower_building_trigger = yes
			}
			treasury = 450
		}

		effect = {
			2948 = {
				if = {
					limit = {
						NOT = {	
							trade_goods = gold
							trade_goods = mithril
						}
					}
					change_trade_goods = gems
					add_building = mills
				}
				else_if = {
					limit = { trade_goods = gold }
					add_province_modifier = {
						name = orlghelovar_golden_diamond_quarry
						duration = -1
					}
				}
				else_if = {
					limit = { trade_goods = mithril }
					add_building = weapons
				}
			}
			add_treasury = -450
			hidden_effect = { country_event = { id = flavor_orlghelovar.11 days = 50 } }
		}
	}
}
orlghelovar_2p4s = {
	slot = 4
	generic = no
	ai = yes
	has_country_shield = yes
	potential = {
		OR = {
			tag = I12
			AND = {
				tag = I24
				was_tag = I12
			}
		}
		has_country_flag = orlghelovar_1p_done
	}
	
	orlghelovar_integrate_baharkandis_ways = {
		icon = mission_expand_inland
		position = 6
		required_missions = {
			orlghelovar_resurgence_of_a_legacy
		}
		
		provinces_to_highlight = {
			province_id = 1312
		}
		
		trigger = {
			num_of_owned_provinces_with = {
				value = 2
				base_production = 12
				trade_goods = glass
				region = bahar_region
			}
			1312 = { 
				trade_share = {
				country = ROOT
				share = 60
				}
			}
		}
		
		effect = {
			536 = {
				add_province_modifier = {
					name = orlghelovar_baharkandi_glass_trade
					duration = -1
				}
			}
			530 = {
				add_province_modifier = {
					name = orlghelovar_baharkandi_glass_trade
					duration = -1
				}
			}
			custom_tooltip = "orlghelovar_glasslords_upgrade_tt"
			orlghelovar_glasslords_upgrade = yes
		}
	}
	
	orlghelovar_make_partners_depended = {
		icon = mission_conquer_tunisia
		position = 12
		required_missions = {
			orlghelovar_integrate_baharkandis_ways
			orlghelovar_with_trade_comes_knowledge
		}
		
		trigger = {
			if = {
				limit = { exists = F23 }
				has_spy_network_in = {
					who = F23
					value = 75
				}
				treasury = 2500
			}
			else_if = {
				limit = {
					exists = F23
					is_vassal = yes
				}
				medbahar_area = {
					type = all
					country_or_non_sovereign_subject_holds = ROOT
				}
				tungr_mountains_area = {
					type = all
					country_or_non_sovereign_subject_holds = ROOT
				}
			}
			else = {
				magairous_area = {
					type = all
					country_or_non_sovereign_subject_holds = ROOT
				}
				medbahar_area = {
					type = all
					country_or_non_sovereign_subject_holds = ROOT
				}
				tungr_mountains_area = {
					type = all
					country_or_non_sovereign_subject_holds = ROOT
				}
			}
		}
		
		effect = {
			if = {
				limit = {
					F23 = {
						exists = yes
						is_vassal = no
					}
				}
				create_subject = {
					subject_type = vassal
					subject = F23
				}
				add_treasury = -2500
				bahar_region = {
					limit = {
						NOT = { is_core = F23 }
						NOT = { owned_by = F23 }
					}
					add_permanent_claim = F23
				}
			}
			else = {
				bahar_region = {
					limit = {
						NOT = { is_core = I12 }
						NOT = { owned_by = I12 }
					}
					add_permanent_claim = I12
				}
			}
		}
	}
}
orlghelovar_2p3s = {
	slot = 3
	generic = no
	ai = yes
	has_country_shield = yes
	potential = {
		OR = {
			tag = I12
			AND = {
				tag = I24
				was_tag = I12
			}
		}
		has_country_flag = orlghelovar_1p_done
	}
	
	orlghelovar_warding_gate = {
		icon = mission_alone_in_the_wood
		position = 7
		required_missions = {
			orlghelovar_three_hold_consolidation
		}
		
		provinces_to_highlight = {
			province_id = 4100
			NOT = {
				AND = {
					owned_by = ROOT
					hold_condition = { Repaired = yes }
					fort_level = 2
				}
			}
		}
		
		trigger = {
			4100 = {
				owned_by = ROOT
				hold_condition = { Repaired = yes }
				fort_level = 2
			}
		}
		
		effect = {
			add_dip_power = 75
			add_mil_power = 75
		}
	}
	
	orlghelovar_unexplored_wilderness = {
		icon = mission_alone_in_the_forest
		position = 8
		required_missions = {
			orlghelovar_warding_gate
		}
		
		trigger = {
			if = {
				limit = {
					any_country = {
						capital_scope = { superregion = deepwoods_superregion }
						primary_culture = wood_elf
					}
				}
				any_known_country = {
					capital_scope = { superregion = deepwoods_superregion }
					primary_culture = wood_elf
					has_opinion = {
						who = ROOT
						value = 100
					}
				}
			}
			else = {
				num_of_allies = 4
			}
		}
		
		effect = {
			if = {
				limit = {
					any_known_country = {
						primary_culture = wood_elf
					}
				}
				random_known_country = {
					limit = {
						primary_culture = wood_elf
						has_opinion = {
							who = ROOT
							value = 100
						}
					}
					country_event = { id = flavor_orlghelovar.6 }
				}
			}
			else = {
				add_treasury = 100
			}
		}
	}
	
	orlghelovar_gain_new_partners = {
		icon = mission_consume_the_baghels
		position = 9
		required_missions = {
			orlghelovar_unexplored_wilderness
		}
		
		trigger = {
			any_ally = {
				OR = {
					culture_group = dwarven
					primary_culture = wood_elf
				}
				has_opinion_modifier = {
					modifier = sent_gift
					who = ROOT
				}
			}
		}
		
		effect = {
			add_country_modifier = {
				name = orlghelovar_dwarven_caravan
				duration = -1
			}
		}
	}
	
	orlghelovar_with_trade_comes_knowledge = {
		icon = contracts_of_correspondence
		position = 11
		required_missions = {
			orlghelovar_gain_new_partners
			orlghelovar_normal_sized_geniuses
		}
		
		trigger = {
			estate_loyalty = {
				estate = estate_burghers
				loyalty = 60
			}
			estate_influence = {
				estate = estate_burghers
				influence = 80
			}
			has_estate_privilege = estate_burghers_commercial_board_of_advice
			has_estate_privilege = estate_burghers_exclusive_trade_rights
		}
		
		effect = {
			set_country_flag = orlghelovar_merchant_spies
			set_estate_privilege = estate_burghers_merchant_spies
		}
	}
}
orlghelovar_2p1s = {
	slot = 1
	generic = no
	ai = yes
	has_country_shield = yes
	potential = {
		OR = {
			tag = I12
			AND = {
				tag = I24
				was_tag = I12
			}
		}
		has_country_flag = orlghelovar_1p_done
	}
	
	orlghelovar_taking_revenge = {
		icon = mission_burning_castle
		position = 6
		required_missions = {
			orlghelovar_resurgence_of_a_legacy
		}
		
		provinces_to_highlight = {
			OR = {
				area = west_overmarch_area
				area = east_overmarch_area
			}
			culture_group = goblin
		}
		
		trigger = {
			east_overmarch_area = {
				NOT = {
					culture_group = goblin
				}
				type = all
			}
			west_overmarch_area = {
				NOT = {
					culture_group = goblin
				}
				type = all
			}
		}
		
		effect = {
			ourdia_region = {
				limit = {
					NOT = { is_core = ROOT }
					NOT = { owned_by = ROOT }
				}
				add_permanent_claim = ROOT
			}
		}
	}
	
	orlghelovar_baseless_crusade = {
		icon = mission_autocephalous_archbishopric
		position = 8
		required_missions = {
			orlghelovar_taking_revenge
		}
		
		provinces_to_highlight = {
			NOT = {
				OR = {
					owned_by = F23
					owned_by = ROOT
				}
			}
			OR = {
				area = south_overmarch_area
				area = east_overmarch_area
				area = west_overmarch_area
			}
		}
		
		trigger = {
			U16 = {
				exists = no
			}
			south_overmarch_area = {
				type = all
				OR = {
					owned_by = ROOT
					owned_by = F23
				}
			}
			west_overmarch_area = {
				type = all
				OR = {
					owned_by = ROOT
					owned_by = F23
				}
			}
			east_overmarch_area = {
				type = all
				OR = {
					owned_by = ROOT
					owned_by = F23
				}
			}
		}
		
		effect = {
			add_dip_power = 100
		}
	}
	
	orlghelovar_glasshammer_fair = {
		icon = capture_adriatic_ports
		position = 9
		required_missions = {
			orlghelovar_baseless_crusade
			orlghelovar_new_brothers
		}
		
		provinces_to_highlight = {
			NOT = {
				trade_share = {
				country = ROOT
				share = 5
				}
			}
			province_id = 1270
		}
		
		trigger = {
			1270 = {
				trade_share = {
				country = ROOT
				share = 5
				}
			}
		}
		
		effect = {
			custom_tooltip = "orlghelovar_glasslords_upgrade_tt"
			orlghelovar_glasslords_upgrade = yes
		}
	}
	
	orlghelovar_imperial_innovation = {
		icon = give_him_back_his_legions
		position = 11
		required_missions = {
			orlghelovar_normal_sized_geniuses
			orlghelovar_glasshammer_fair
		}
		
		trigger = {
			any_ally = {
				is_part_of_hre = yes
			}
			8 = {
				owner = {
					has_spy_network_from = {
						who = ROOT
						value = 25
					}
				}
			}
		}
		
		effect = {
			add_country_modifier = { name = orlghelovar_imperial_innovation duration = 3650 }
			add_treasury = -1000
		}
	}
}
orlghelovar_2p2s = {
	slot = 2
	generic = no
	ai = yes
	has_country_shield = yes
	potential = {
		OR = {
			tag = I12
			AND = {
				tag = I24
				was_tag = I12
			}
		}
		has_country_flag = orlghelovar_1p_done
	}
	
	orlghelovar_three_hold_consolidation = {
		icon = mission_secret_of_the_veil
		position = 6
		required_missions = {
			orlghelovar_resurgence_of_a_legacy
		}
		
		provinces_to_highlight = {
			OR = {
				area = south_altar_area
				area = orlghelovar_area
				area = north_altar_area
				area = argrod_origin_area
				province_id = 2942
				province_id = 4093
			}
			NOT = { owned_by = ROOT }
		}
		
		trigger = {
			argrod_origin_area = {
				owned_by = ROOT
				is_core = ROOT
				type = all
			}
			north_altar_area = {
				owned_by = ROOT
				is_core = ROOT
				type = all
			}
			south_altar_area = {
				owned_by = ROOT
				is_core = ROOT
				type = all
			}
			orlghelovar_area = {
				owned_by = ROOT
				is_core = ROOT
				type = all
			}
			owns_core_province = 2942
			owns_core_province = 4093
		}
		
		effect = {
			add_country_modifier = { name = orlghelovar_united_homefront duration = 7300 }
		}
	}
	
	orlghelovar_glass_to_divenhal = {
		icon = mission_defeat_jaunpur
		position = 7
		required_missions = {
			orlghelovar_three_hold_consolidation
		}
		
		provinces_to_highlight = { 
			OR = {
				province_id = 531
				province_id = 530
				province_id = 534
				province_id = 535
			}
			NOT = { owned_by = ROOT }
		}
		
		trigger = {
			magairous_area = {
				type = all
				OR = {
					AND = {
						owned_by = ROOT
						is_core = ROOT
						NOT = {
							culture = exodus_goblin
						}
					}
					AND = {
						owned_by = F23
						is_core = F23
					}
				}
			}
		}
		
		effect = {
			medbahar_area = {
				limit = {
					NOT = { is_core = ROOT }
					NOT = { owned_by = ROOT }
				}
				add_permanent_claim = ROOT
			}
			aqatbahar_area = {
				limit = {
					NOT = { is_core = ROOT }
					NOT = { owned_by = ROOT }
				}
				add_permanent_claim = ROOT
			}
		}
	}
	
	orlghelovar_new_brothers = {
		icon = mission_deccanis
		position = 8
		required_missions = {
			orlghelovar_glass_to_divenhal
		}
		provinces_to_highlight = {
			region = bahar_region
			owner = { has_country_modifier = goblin_administration }
		}
		
		trigger = {
			bahar_region = {
				owner = { NOT = { has_country_modifier = goblin_administration } }
				type = all 
			}
		}
		
		effect = {
			country_event = { id = flavor_orlghelovar.9 }
		}
	}
	
	orlghelovar_normal_sized_geniuses = {
		icon = mission_establish_the_prikazy
		position = 10
		required_missions = {
			orlghelovar_glasshammer_fair
		}
		
		trigger = {
			if = {
				limit = {
					exists = A79
				}
				reverse_has_opinion = {
					who = A79
					value = 100
				}
			}
			else_if = {
				limit = {
					exists = A06
				}
				reverse_has_opinion = {
					who = A06
					value = 100
				}
			}
			else_if = {
				limit = {
					exists = A81
				}
				reverse_has_opinion = {
					who = A81
					value = 100
				}
			}
			else = {
				any_ally = {
					any_owned_province = {
						has_large_gnomish_minority_trigger = yes
					}
					reverse_has_opinion = {
						who = THIS
						value = 100
					}
				}
			}
		}
		
		effect = {
			country_event = { id = flavor_orlghelovar.15 }
		}
	}
	
	orlghelovar_impress_gnomes = {
		icon = reclaim_the_ducal_lands
		position = 11
		required_missions = {
			orlghelovar_normal_sized_geniuses
		}
		
		trigger = {
			total_development = 500
			monthly_income = 100
			innovativeness = 10
		}
		
		effect = {
			add_prestige = 10
			large_increase_of_gnomish_tolerance_effect = yes
			4238 = {
				add_gnomish_minority_size_effect = yes
			}
		}
	}
	
	orlghelovar_a_new_era = {
		icon = adjust_the_general_means
		position = 12
		required_missions = {
			orlghelovar_imperial_innovation
			orlghelovar_impress_gnomes
			orlghelovar_with_trade_comes_knowledge
		}
		
		trigger = {
			adm_power = 200
			dip_power = 200
			mil_power = 200
		}
		
		effect = {
			country_event = { id = flavor_orlghelovar.16 }
		}
	}
}
#Part 2b, expedition to reclaim the 2. glass hold or in our words gor burad
orlghelovar_2bp5s = {
	slot = 5
	generic = no
	ai = yes
	has_country_shield = yes
	potential = {
		OR = {
			tag = I12
			AND = {
				tag = I24
				was_tag = I12
			}
		}
		#has_country_flag = orlghelovar_1p_done
		has_country_flag = orlghelovar_gor_burad_expedition_start
	}
	
	orlghelovar_end_of_serpentreach = {
		icon = mission_mnd_dai_examination_system
		position = 11
		required_missions = {
			orlghelovar_diamond_quarry
		}
		
		provinces_to_highlight = {
			OR = {
				province_id = 4038
				province_id = 4037
				province_id = 4036
				province_id = 2985
				province_id = 2984
				province_id = 2980
				province_id = 2981
				province_id = 2979
				province_id = 2970
				province_id = 2968
				province_id = 2969
				province_id = 4240
				province_id = 2962
				province_id = 2946
				province_id = 2945
				province_id = 2944
				province_id = 2943
				province_id = 2955
				province_id = 2954
				province_id = 2956
				province_id = 2957
				province_id = 2987
			}
			NOT = { owned_by = ROOT }
		}
		
		trigger = {
			serpentreach_region = {
				type = all
				OR = {
					NOT = { has_terrain = dwarven_road }
					owned_by = ROOT
				}
			}
		}
		
		effect = {
			country_event = { id = flavor_orlghelovar.12 }
		}
	}
	
	orlghelovar_volcanic_glass = {
		icon = mission_mountain_castle
		position = 12
		required_missions = {
			orlghelovar_end_of_serpentreach
		}
		
		provinces_to_highlight = {
			province_id = 4039
		}
		
		trigger = {
			4039 = {
				owned_by = ROOT
				hold_condition = { Repaired = yes }
			}
		}
		
		effect = {
			4039 = {
				if = {
					limit = {
						NOT = {	
							OR = {
								trade_goods = gold
								trade_goods = mithril
							}
						}
					}
					change_trade_goods = glass
				}
			}
		}
	}
	
	orlghelovar_begin_excavations = {
		icon = mission_se_birdmen
		position = 13
		required_missions = {
			orlghelovar_volcanic_glass
		}
		
		provinces_to_highlight = {
			area = zarn_area
		}
		
		trigger = {
			zarn_area = {
				type = all
				owned_by = ROOT
			}
		}
		
		effect = {
			country_event = { id = flavor_orlghelovar.13 }
		}
	}
}
orlghelovar_2bp4s = {
	slot = 4
	generic = no
	ai = yes
	has_country_shield = yes
	potential = {
		OR = {
			tag = I12
			AND = {
				tag = I24
				was_tag = I12
			}
		}
		#has_country_flag = orlghelovar_1p_done
		has_country_flag = orlghelovar_gor_burad_expedition_start
	}
	
	orlghelovar_release_vulcano = {
		icon = mission_industrialize_bengal
		position = 13
		required_missions = {
			orlghelovar_volcanic_glass
		}
		
		provinces_to_highlight = {
			area = buradforge_area
		}
		
		trigger = {
			buradforge_area = {
				type = all
				owned_by = ROOT
				development = 11
				has_manufactory_trigger = yes
				OR = {
					has_production_building_trigger = yes
					has_tax_building_trigger = yes
				}
			}
			4039 = {
				has_dwarven_hold_5 = yes
			}
		}
		
		effect = {
			4039 = {
				add_province_modifier = { name = orlghelovar_obsidian_glass duration = -1 }
			}
		}
	}
}
#Part 3, Research start. All inventions will be seperatly marked
#Non research missions first
orlghelovar_3p1s = {
	slot = 1
	generic = no
	ai = yes
	has_country_shield = yes
	potential = {
		OR = {
			tag = I12
			AND = {
				tag = I24
				was_tag = I12
			}
		}
		has_country_flag = orlghelovar_2p_done
	}
	
	orlghelovar_restructure_cobalt_mines = {
		icon = mission_entrepot_of_india
		position = 13
		required_missions = {
			orlghelovar_a_new_era
		}
		
		trigger = {
			2939 = {
				base_production = 15
				has_manufactory_trigger = yes
			}
			treasury = 450
		}
		
		effect = {
			add_treasury = -450
			2939 = {
				add_province_modifier = { name = orlghelovar_new_cobalt_mines duration = -1 }
			}
		}
	}
}
orlghelovar_3p2s = {
	slot = 2
	generic = no
	ai = yes
	has_country_shield = yes
	potential = {
		OR = {
			tag = I12
			AND = {
				tag = I24
				was_tag = I12
			}
		}
		has_country_flag = orlghelovar_2p_done
	}
	
	orlghelovar_enact_enlightened_ten = {
		icon = strengthen_the_vroedschappen
		position = 13
		required_missions = {
			orlghelovar_a_new_era
		}
		
		trigger = {
			treasury = 3000
			4238 = {
				has_dwarven_hold_5 = yes
			}
		}
		
		effect = {
			add_treasury = -3000
			4238 = { add_province_modifier = { name = orlghelovar_research_center1 duration = -1 } }
			country_event = { id = flavor_orlghelovar.100 }
		}
	}
	
	orlghelovar_expand_research_rooms = {
		icon = continue_the_renaissance
		position = 16
		required_missions = {
			orlghelovar_enact_enlightened_ten
		}
		
		trigger = {
			treasury = 2500
			adm_power = 250
			natural_scientist = 5
		}
		
		effect = {
			add_adm_power = -250
			add_treasury = -2500
			custom_tooltip = orlghelovar_research_center_upgrade_tt
			orlghelovar_research_center_upgrade = yes
		}
	}
	
	orlghelovar_record_spoken_words = {
		icon = develop_naples
		position = 17
		required_missions = {
			orlghelovar_expand_research_rooms
		}
		
		trigger = {
			OR = {
				custom_trigger_tooltip = {
					tooltip = orlghelovar_paper_tt
					has_country_flag = unlocked_artifice_invention_self_cleaning_parchment
				}
				is_year = 1700
			}
		}
		
		effect = {
			add_country_modifier = { name = orlghelovar_recording_parchment duration = -1 }
		}
	}
}
#1 part of the split. I hate how the MT is constructed by EU4
orlghelovar_3p3snt = {
	slot = 3
	generic = no
	ai = yes
	has_country_shield = yes
	potential = {
		OR = {
			tag = I12
			AND = {
				tag = I24
				was_tag = I12
			}
		}
		has_country_flag = orlghelovar_2p_done
	}

	orlghelovar_new_trading_policiy = {
		icon = mission_kowtow
		position = 13
		required_missions = {
			orlghelovar_a_new_era
			orlghelovar_make_partners_depended
		}
		
		trigger = {
			dip_power = 300
			F23 = { years_in_vassalage_under = { who = ROOT years = 25 } }
			reuyel_area = {
				type = all
				owned_by = F23
			}
			crathanor_area = {
				type = all
				owned_by = F23
			}
			
		}
		
		effect = {
			country_event = { id = flavor_orlghelovar.10 }
		}
	}
}
#glass research
orlghelovar_glass_1 = {
	slot = 3
	generic = no
	ai = yes
	has_country_shield = yes
	potential = {
		OR = {
			tag = I12
			AND = {
				tag = I24
				was_tag = I12
			}
		}
		OR = {
			has_country_flag = orlghelovar_glass_research
			has_country_flag = orlghelovar_glass_research_2
			has_country_flag = orlghelovar_glass_research_3
			has_country_flag = orlghelovar_glass_research_done
		}
	}
	
	orlghelovar_hire_experts = {
		icon = mission_ahmadabad_paper
		position = 14
		required_missions = {
			orlghelovar_enact_enlightened_ten
		}
		
		trigger = {
			trader = 5
			trading_bonus = {
				trade_goods = glass
				value = yes
			}
			num_of_owned_provinces_with = {
				value = 4
				trade_goods = glass
			}
		}
		
		effect = {
			country_event = { id = flavor_orlghelovar.102 }
		}
	}
}
orlghelovar_glass_2 = {
	slot = 3
	generic = no
	ai = yes
	has_country_shield = yes
	potential = {
		OR = {
			tag = I12
			AND = {
				tag = I24
				was_tag = I12
			}
		}
		OR = {
			has_country_flag = orlghelovar_glass_research_2
			has_country_flag = orlghelovar_glass_research_3
			has_country_flag = orlghelovar_glass_research_done
		}
	}
	
	orlghelovar_clear_as_daylight = {
		icon = mission_confrontation
		position = 15
		required_missions = {
			orlghelovar_hire_experts
		}
		
		trigger = {
			calc_true_if = {
				amount = 3
				all_ally = {
					has_opinion = {
						who = ROOT
						value = 100
					}
					any_owned_province = {
						trade_goods = glass
						superregion = western_cannor_superregion
					}
				}
            }
        }
		
		effect = {
			country_event = { id = flavor_orlghelovar.103 }
		}
	}
}
orlghelovar_glass_3a = {
	slot = 3
	generic = no
	ai = yes
	has_country_shield = yes
	potential = {
		OR = {
			tag = I12
			AND = {
				tag = I24
				was_tag = I12
			}
		}
		OR = {
			has_country_flag = orlghelovar_glass_research_3
			has_country_flag = orlghelovar_glass_research_done
		}
	}
	
	orlghelovar_codex_of_production = {
		icon = unite_the_league
		position = 16
		required_missions = {
			orlghelovar_clear_as_daylight
		}
		
		trigger = {
			NOT = {
				any_owned_province = {
					trade_goods = glass
					NOT = { base_production = 20 }
				}
			}
		}
		
		effect = {
			country_event = { id = flavor_orlghelovar.107 }
		}
	}
}
orlghelovar_glass_3b = {
	slot = 4
	generic = no
	ai = yes
	has_country_shield = yes
	potential = {
		OR = {
			tag = I12
			AND = {
				tag = I24
				was_tag = I12
			}
		}
		OR = {
			has_country_flag = orlghelovar_glass_research_3
			has_country_flag = orlghelovar_glass_research_done
		}
	}
	
	orlghelovar_analysis_of_glass = {
		icon = geneva_conventions
		position = 16
		required_missions = {
			orlghelovar_clear_as_daylight
		}
		
		trigger = {
			natural_scientist = 5
			treasury = 500
			any_owned_province = {
				trade_goods = glass
				base_production = 40
			}
		}
		
		effect = {
			country_event = { id = flavor_orlghelovar.110 }
		}
	}
}
orlghelovar_glass_final = {
	slot = 4
	generic = no
	ai = yes
	has_country_shield = yes
	potential = {
		OR = {
			tag = I12
			AND = {
				tag = I24
				was_tag = I12
			}
		}
		OR = {
			has_country_flag = orlghelovar_glass_research_3
			has_country_flag = orlghelovar_glass_research_done
		}
	}
	
	orlghelovar_shatter_predjudice = {
		icon = bohemian_crystal
		position = 17
		required_missions = {
			orlghelovar_codex_of_production
			orlghelovar_analysis_of_glass
		}
		
		trigger = {
			NOT = {
				has_country_modifier = orlghelovar_glass_king_rebellion
			}
			NOT = {
				has_country_modifier = orlghelovar_study_of_glass
			}
		}
		
		effect = {
			country_event = { id = flavor_orlghelovar.111 }
		}
	}
}
orlghelovar_3p3su = {
	slot = 3
	generic = no
	ai = yes
	has_country_shield = yes
	potential = {
		OR = {
			tag = I12
			AND = {
				tag = I24
				was_tag = I12
			}
		}
		has_country_flag = orlghelovar_2p_done
	}
	
	orlghelovar_lay_ground_work = {
		icon = mission_city_prosperity
		position = 17
		required_missions = {
			orlghelovar_expand_research_rooms
		}
		
		trigger = {
			innovativeness = 25
			dip_power = 250
			treasury = 3000
		}
		
		effect = {
			add_treasury = -3000
			add_dip_power = -250
			4238 = {
				add_province_modifier = { name = orlghelovar_university_digging duration = 9125 }
			}
		}
	}
	
	orlghelovar_magical_testing = {
		icon = mission_dark_book
		position = 18
		required_missions = {
			orlghelovar_lay_ground_work
		}
		
		trigger = {
			4238 = {
				NOT = {
					has_province_modifier = orlghelovar_university_digging
				}
			}
			if = {
				limit = { has_estate = estate_mages }
				court_mage = 5
			}
		}
		
		effect = {
			add_country_modifier = { name = orlghelovar_magic_study duration = 5475 }
			custom_tooltip = orlghelovar_research_center_upgrade_tt
			orlghelovar_research_center_upgrade = yes
		}
	}
	
	orlghelovar_finish_university = {
		icon = mission_early_modern_university
		position = 19
		required_missions = {
			orlghelovar_magical_testing
		}
		
		trigger = {
			4238 = {
				has_dwarven_hold_7 = yes
				has_building = university
			}
		}
		
		effect = {
			add_country_modifier = { name = orlghelovar_university_filling duration = 5475 }
			custom_tooltip = orlghelovar_research_center_upgrade_tt
			orlghelovar_research_center_upgrade = yes
		}
	}
}
#Magical Glass
orlghelovar_bonus_mg = {
	slot = 4
	generic = no
	ai = yes
	has_country_shield = yes
	potential = {
		OR = {
			tag = I12
			AND = {
				tag = I24
				was_tag = I12
			}
		}
		has_country_flag = orlghelovar_glass_research_done
		has_country_flag = orlghelovar_magic_research_done
	}
	
	orlghelovar_magical_glass = {
		icon = mission_empowerment
		position = 20
		required_missions = {
			orlghelovar_finish_university
			orlghelovar_shatter_predjudice
		}
		
		trigger = {
			OR = {
				treasury = 5000
				any_owned_province = {
					trade_goods = damestear
					has_manufactory_trigger = yes
				}
			}
		}
		
		effect = {
			add_country_modifier = { name = orlghelovar_magical_glass duration = -1 }
			if = {
				limit = {
					NOT = {
						any_owned_province = {
							trade_goods = damestear
							has_building = tradecompany
						}
					}
				}
				add_treasury = -5000
			}
		}
	}
}
#Light research
orlghelovar_light_1 = {
	slot = 1
	generic = no
	ai = yes
	has_country_shield = yes
	potential = {
		OR = {
			tag = I12
			AND = {
				tag = I24
				was_tag = I12
			}
		}
		has_country_flag = orlghelovar_2p_done
		#has_country_flag = orlghelovar_light_research
		#has_country_flag = orlghelovar_light_research_done
	}
	
	orlghelovar_safety_of_surface = {
		icon = mission_sunset
		position = 14
		required_missions = {
			orlghelovar_enact_enlightened_ten
		}
		
		trigger = {
			all_owned_province = {
				OR = {
					NOT = {
						region = serpentreach_region
					}
					NOT = {
						unrest = 1
					}
				}
			}
		}
		
		effect = {
			add_country_modifier = { name = orlghelovar_guiding_light duration = 3650 }
		}
	}
	
	orlghelovar_enlightend_empire = {
		icon = mission_sun_temple
		position = 15
		required_missions = {
			orlghelovar_safety_of_surface
		}
		
		trigger = {
			536 = {
				development = 40
				has_tax_building_trigger = yes
				has_production_building_trigger = yes
				has_manufactory_trigger = yes
			}
		}
		
		effect = {
			country_event = { id = flavor_orlghelovar.113 }
		}
	}
}
#Magic Research
orlghelovar_magic_1 = {
	slot = 1
	generic = no
	ai = yes
	has_country_shield = yes
	potential = {
		OR = {
			tag = I12
			AND = {
				tag = I24
				was_tag = I12
			}
		}
		OR = {
			has_country_flag = orlghelovar_magic_research
			has_country_flag = orlghelovar_magic_research_3
			has_country_flag = orlghelovar_magic_research_done
		}
	}
	
	orlghelovar_secure_damestear_supply = {
		icon = mission_artificier_experience
		position = 17
		required_missions = {
			orlghelovar_expand_research_rooms
		}
		
		trigger = {
			OR = {
				any_owned_province = {
					trade_goods = damestear
					has_manufactory_trigger = yes
					base_production = 10
				}
				# calc_true_if = {
					# amount = 2
					# all_ally = {
						# any_owned_province = {
							# trade_goods = damestear
						# }
					# }
				# }
				any_ally = {
					any_owned_province = {
						trade_goods = damestear
					}
				}
			}
		}
		
		effect = {
			country_event = { id = flavor_orlghelovar.115 }
		}
	}
}
orlghelovar_magic_2a = {
	slot = 1
	generic = no
	ai = yes
	has_country_shield = yes
	potential = {
		OR = {
			tag = I12
			AND = {
				tag = I24
				was_tag = I12
			}
		}
		OR = {
			has_country_flag = orlghelovar_magic_research_3
			has_country_flag = orlghelovar_magic_research_done
		}
	}
	
	orlghelovar_appease_mages = {
		icon = protect_against_austria
		position = 18
		required_missions = {
			orlghelovar_secure_damestear_supply
		}
		
		trigger = {
			NOT = { num_of_rebel_armies = 1 }
			manpower_percentage = 0.75
		}
		
		effect = {
			add_country_modifier = { name = orlghelovar_appease_mages duration = 3650 }
		}
	}
}
orlghelovar_magic_3a = {
	slot = 1
	generic = no
	ai = yes
	has_country_shield = yes
	potential = {
		OR = {
			tag = I12
			AND = {
				tag = I24
				was_tag = I12
			}
		}
		OR = {
			has_country_flag = orlghelovar_magic_research_3
			has_country_flag = orlghelovar_magic_research_done
		}
	}
	
	orlghelovar_ensure_future_stability = {
		icon = personal_diplomacy
		position = 19
		required_missions = {
			orlghelovar_appease_mages
		}
		
		trigger = {
			stability = 0
			spymaster = 3
			if = {
				limit = { has_estate = estate_mages }
				court_mage = 3
			}
		}
		
		effect = {
			add_stability_or_adm_power = yes
		}
	}
}
orlghelovar_magic_3b = {
	slot = 2
	generic = no
	ai = yes
	has_country_shield = yes
	potential = {
		OR = {
			tag = I12
			AND = {
				tag = I24
				was_tag = I12
			}
		}
		OR = {
			has_country_flag = orlghelovar_magic_research_3
			has_country_flag = orlghelovar_magic_research_done
		}
	}
	
	orlghelovar_revoke_tax = {
		icon = mission_zambezi_gold
		position = 19
		required_missions = {
			orlghelovar_appease_mages
		}
		
		trigger = {
			NOT = {
				has_country_modifier = orlghelovar_researching_damestear
			}
			has_estate_privilege = estate_mages_patronage_of_the_magical_arts
			has_estate_privilege = estate_mages_reduced_research_regulations
			estate_loyalty = {
				estate = estate_mages
				loyalty = 50
			}
			num_of_owned_provinces_with = {
				value = 5
				has_building = mage_tower
			}
		}
		
		effect = {
			remove_country_modifier = orlghelovar_unhappy_mages
		}
	}
}
orlghelovar_magic_4 = {
	slot = 2
	generic = no
	ai = yes
	has_country_shield = yes
	potential = {
		OR = {
			tag = I12
			AND = {
				tag = I24
				was_tag = I12
			}
		}
		OR = {
			has_country_flag = orlghelovar_magic_research_3
			has_country_flag = orlghelovar_magic_research_done
		}
	}
	
	orlghelovar_place_of_mages = {
		icon = mission_scepter_of_scepters
		position = 20
		required_missions = {
			orlghelovar_ensure_future_stability
			orlghelovar_revoke_tax
		}
		
		trigger = {
			adm_power = 150
			dip_power = 150
			mil_power = 150
		}
		
		effect = {
			country_event = { id = flavor_orlghelovar.119 }
		}
	}
}
#Black Damestear
orlghelovar_black_damestear_1 = {
	slot = 2
	generic = no
	ai = yes
	has_country_shield = yes
	potential = {
		OR = {
			tag = I12
			AND = {
				tag = I24
				was_tag = I12
			}
		}
		OR = {
			has_country_flag = orlghelovar_black_damestear_research
			has_country_flag = orlghelovar_black_damestear_research_2
			has_country_flag = orlghelovar_black_damestear_research_3
			has_country_flag = orlghelovar_black_damestear_research_done
		}
	}
	
	orlghelovar_prevent_another_uprising = {
		icon = mission_dual_diplomacy
		position = 21
		required_missions = {
			orlghelovar_place_of_mages
		}
		
		trigger = {
			stability = 3
			if = {
				limit = { has_estate = estate_mages }
				estate_loyalty = {
					estate = estate_mages
					loyalty = 60
				}
			}
			else = {
				adm_power = 100
				dip_power = 100
				mil_power = 100
			}
		}
		
		effect = {
			add_country_modifier = { name = orlghelovar_uprising_prevented duration = 3650 }
			if = {
				limit = {
					NOT = { has_estate = estate_mages }
				}
				add_adm_power = -100
				add_dip_power = -100
				add_mil_power = -100
			}
		}
	}
	
	orlghelovar_put_artificers_first = {
		icon = balance_the_estates
		position = 22
		required_missions = {
			orlghelovar_prevent_another_uprising
		}
		
		trigger = {
			production_income_percentage = 0.30
			estate_loyalty = {
				estate = estate_artificers
				loyalty = 60
			}
		}
		
		effect = {
			add_country_modifier = { name = orlghelovar_artificers_first duration = -1 }
		}
	}
}
orlghelovar_black_damestear_2 = {
	slot = 3
	generic = no
	ai = yes
	has_country_shield = yes
	potential = {
		OR = {
			tag = I12
			AND = {
				tag = I24
				was_tag = I12
			}
		}
		OR = {
			has_country_flag = orlghelovar_black_damestear_research
			has_country_flag = orlghelovar_black_damestear_research_2
			has_country_flag = orlghelovar_black_damestear_research_3
			has_country_flag = orlghelovar_black_damestear_research_done
		}
	}
	
	orlghelovar_follow_the_trail = {
		icon = mission_the_covenant
		position = 20
		required_missions = {
			orlghelovar_finish_university
		}
		
		trigger = {
			643 = {
				owner = {
					has_spy_network_from = {
						who = ROOT
						value = 50
					}
				}
			}
			treasury = 500
		}
		
		effect = {
			country_event = { id = flavor_orlghelovar.147 }
		}
	}
}
orlghelovar_black_damestear_3 = {
	slot = 3
	generic = no
	ai = yes
	has_country_shield = yes
	potential = {
		OR = {
			tag = I12
			AND = {
				tag = I24
				was_tag = I12
			}
		}
		OR = {
			has_country_flag = orlghelovar_black_damestear_research_2
			has_country_flag = orlghelovar_black_damestear_research_3
			has_country_flag = orlghelovar_black_damestear_research_done
		}
	}
	
	orlghelovar_unlock_secrets_of_the_east = {
		icon = mission_subdue_rajputana
		position = 21
		required_missions = {
			orlghelovar_follow_the_trail
		}
		
		trigger = {
			4238 = {
				infantry_in_province = 35
				artillery_in_province = 10
			}
			if = {
				limit = { exists = R62 }
				has_spy_network_in = {
					who = R62
					value = 80
				}
			}
			else = {
				4630 = {
					owner = {
						has_spy_network_from = {
							who = ROOT
							value = 80
						}
					}
				}
			}
		}
		
		effect = {
			kill_units = {
				who = ROOT
				type = infantry
				amount = 35
			}
			kill_units = {
				who = ROOT
				type = artillery
				amount = 10
			}
			country_event = { id = flavor_orlghelovar.148 days = 730 }
		}
	}
}
orlghelovar_black_damestear_4 = {
	slot = 3
	generic = no
	ai = yes
	has_country_shield = yes
	potential = {
		OR = {
			tag = I12
			AND = {
				tag = I24
				was_tag = I12
			}
		}
		OR = {
			has_country_flag = orlghelovar_black_damestear_research_3
			has_country_flag = orlghelovar_black_damestear_research_done
		}
	}
	
	orlghelovar_build_production_site = {
		icon = the_ostend_company
		position = 23
		required_missions = {
			orlghelovar_put_artificers_first
			orlghelovar_unlock_secrets_of_the_east
		}
		
		trigger = {
			2942 = {
				has_dwarven_hold_4 = yes
				has_multiple_manufactory_trigger = { VAL = 2 }
				has_building = mage_tower
			}
		}
		
		effect = {
			2942 = {
				change_trade_goods = damestear
				set_province_flag = permanent_damestear 
				add_province_modifier = { name = orlghelovar_black_damestear_facility duration = -1 }
				add_province_modifier = { name = orlghelovar_new_production duration = 3650 }
			}
			custom_tooltip = orlghelovar_damestear_tt
			set_country_flag = orlghelovar_black_damestear_research_done
			custom_tooltip = orlghelovar_finished_research_arc_tt
			swap_non_generic_missions = yes
			hidden_effect = { country_event = { id = flavor_orlghelovar.100 days = 365 } }
		}
	}
}
#Black Damestear University
orlghelovar_black_damestear_research_center = {
	slot = 3
	generic = no
	ai = yes
	has_country_shield = yes
	potential = {
		OR = {
			tag = I12
			AND = {
				tag = I24
				was_tag = I12
			}
		}
		has_country_flag = orlghelovar_black_damestear_research_done
	}
	
	orlghelovar_black_damestear_security = {
		icon = mission_face_off
		position = 24
		required_missions = {
			orlghelovar_build_production_site
		}
		
		trigger = {
			2942 = {
				trade_goods = damestear
				base_production = 40
				NOT = {
					has_province_modifier = orlghelovar_new_production
				}
			}
		}
		
		effect = {
			custom_tooltip = orlghelovar_research_center_upgrade_tt
			orlghelovar_research_center_upgrade = yes
		}
	}
}
#Magical Bullets
orlghelovar_magical_bullets_1 = {
	slot = 4
	generic = no
	ai = yes
	has_country_shield = yes
	potential = {
		OR = {
			tag = I12
			AND = {
				tag = I24
				was_tag = I12
			}
		}
		OR = {
			has_country_flag = orlghelovar_magical_bullets_research
			has_country_flag = orlghelovar_magical_bullets_research_2
			has_country_flag = orlghelovar_magical_bullets_research_done
		}
	}
	
	orlghelovar_cleaning_up = {
		icon = mission_homeless_children
		position = 23
		required_missions = {
			orlghelovar_magical_glass
		}
		
		trigger = {
			treasury = 500
			adm_power = 200
			dip_power = 200
		}
		
		effect = {
			4238 = { remove_province_modifier = orlghelovar_factory_incident }
			custom_tooltip = orlghelovar_research_progression_pending_tt
			hidden_effect = { country_event = { id = flavor_orlghelovar.137 days = 365 } }
		}
	}
}
orlghelovar_magical_bullets_2 = {
	slot = 4
	generic = no
	ai = yes
	has_country_shield = yes
	potential = {
		OR = {
			tag = I12
			AND = {
				tag = I24
				was_tag = I12
			}
		}
		OR = {
			has_country_flag = orlghelovar_magical_bullets_research_2
			has_country_flag = orlghelovar_magical_bullets_research_done
		}
	}
	
	orlghelovar_too_cruel_too_effective = {
		icon = mission_murder
		position = 24
		required_missions = {
			orlghelovar_cleaning_up
		}
		
		trigger = {
			fortification_expert = 5
			mil_power = 500
		}
		
		effect = {
			add_mil_power = -500
			add_country_modifier = { name = orlghelovar_magical_bullets duration = -1 }
			set_country_flag = orlghelovar_magical_bullets_research_done
			clr_country_flag = orlghelovar_magical_bullets_research_2
			custom_tooltip = orlghelovar_finished_research_arc_tt
			hidden_effect = { country_event = { id = flavor_orlghelovar.100 days = 365 } }
			hidden_effect = {
				if = {
					limit = { has_country_flag = orlghelovar_armour_protection_done }
					country_event = { id = flavor_orlghelovar.203 days = 1095 }
				}
			}
		}
	}
}
#Sapphire Glass
orlghelovar_sapphire_glass_1 = {
	slot = 5
	generic = no
	ai = yes
	has_country_shield = yes
	potential = {
		OR = {
			tag = I12
			AND = {
				tag = I24
				was_tag = I12
			}
		}
		OR = {
			has_country_flag = orlghelovar_sapphire_glass_research
			has_country_flag = orlghelovar_sapphire_glass_research_2
			has_country_flag = orlghelovar_sapphire_glass_research_done
		}
	}
	
	orlghelovar_glass_or_crystal = {
		icon = mission_war_chest
		position = 18
		required_missions = {
			orlghelovar_shatter_predjudice
			orlghelovar_begin_excavations
		}
		
		trigger = {
			4093 = {
				development = 70
			}
			NOT = {
				any_owned_province = {
					trade_goods = iron
					NOT = {
						has_production_building_trigger = yes
						has_building = weapons
						base_production = 5
					}
				}
			}
		}
		
		effect = {
			4093 = {
				add_province_modifier = { name = orlghelovar_researching_sapphire duration = 1095 }
			}
			hidden_effect = {
				country_event = { id = flavor_orlghelovar.124 days = 1095 }
			}
		}
	}


	orlghelovar_neither = {
		icon = mission_warrior_gold
		position = 19
		required_missions = {
			orlghelovar_glass_or_crystal
		}
		
		trigger = {
			OR = {
				trading_bonus = {
					trade_goods = iron
					value = yes
				}
				any_known_country = {
					OR = {
						production_leader = { trade_goods = iron }
						trading_bonus = {
							trade_goods = iron
							value = yes
						}
					}
					reverse_has_opinion = {
						who = THIS
						value = 150
					}
				}
				num_of_owned_provinces_with = {
					value = 9
					trade_goods = iron
					base_production = 13
				}
			}
		}
		
		effect = {
			if = {
				limit = {
					NOT = {
						trading_bonus = {
							trade_goods = iron
							value = yes
						}
					}
				}
			}
			country_event = { id = flavor_orlghelovar.125 }
		}
	}
}
orlghelovar_sapphire_glass_2 = {
	slot = 5
	generic = no
	ai = yes
	has_country_shield = yes
	potential = {
		OR = {
			tag = I12
			AND = {
				tag = I24
				was_tag = I12
			}
		}
		OR = {
			has_country_flag = orlghelovar_sapphire_glass_research_2
			has_country_flag = orlghelovar_sapphire_glass_research_done
		}
	}
	
	orlghelovar_many_uses_of_sapphire_glass = {
		icon = mission_timed_research
		position = 20
		required_missions = {
			orlghelovar_neither
		}
		
		trigger = {
			production_leader = {
				trade_goods = glass
			}
			trading_bonus = {
				trade_goods = glass
				value = yes
			}
		}
	
		effect = {
			country_event = { id = flavor_orlghelovar.129 }
		}
	}
}
#Microscope
orlghelovar_microscope_1 = {
	slot = 1
	generic = no
	ai = yes
	has_country_shield = yes
	potential = {
		OR = {
			tag = I12
			AND = {
				tag = I24
				was_tag = I12
			}
		}
		OR = {
			has_country_flag = orlghelovar_microscope_research
			has_country_flag = orlghelovar_microscope_research_2
			has_country_flag = orlghelovar_microscope_research_3
			has_country_flag = orlghelovar_microscope_research_done
		}
	}
	
	orlghelovar_hope_of_a_scientist = {
		icon = mission_priest_church
		position = 20
		required_missions = {
			orlghelovar_finish_university
		}
		
		trigger = {
			treasury = 500
		}
		
		effect = {
			country_event = { id = flavor_orlghelovar.139 }
		}
	}
}
orlghelovar_microscope_2 = {
	slot = 1
	generic = no
	ai = yes
	has_country_shield = yes
	potential = {
		OR = {
			tag = I12
			AND = {
				tag = I24
				was_tag = I12
			}
		}
		OR = {
			has_country_flag = orlghelovar_microscope_research_2
			has_country_flag = orlghelovar_microscope_research_3
			has_country_flag = orlghelovar_microscope_research_done
		}
	}
	
	orlghelovar_investigate_society = {
		icon = mission_pirate_havens
		position = 21
		required_missions = {
			orlghelovar_hope_of_a_scientist
		}
		
		trigger = {
			NOT = {
				any_owned_province = {
					province_group = hold_province
					NOT = { infantry_in_province = 10 }
				}
			}
			if = {
				limit = { NOT = { has_country_modifier = orlghelovar_lad } }
				estate_loyalty = {
					estate = estate_artificers
					loyalty = 60
				}
				NOT = {
					estate_influence = {
						estate = estate_artificers
						influence = 40
					}
				}
			}
		}
		
		effect = {
			custom_tooltip = orlghelovar_investigate_society_tt
			hidden_effect = {
				hold_province = {
					limit = {
						owned_by = ROOT
					}
					kill_units = {
						who = ROOT
						type = infantry
						amount = 10
					}
				}
			}
			country_event = { id = flavor_orlghelovar.144 }
		}
	}
}
orlghelovar_microscope_3 = {
	slot = 1
	generic = no
	ai = yes
	has_country_shield = yes
	potential = {
		OR = {
			tag = I12
			AND = {
				tag = I24
				was_tag = I12
			}
		}
		OR = {
			has_country_flag = orlghelovar_microscope_research_3
			has_country_flag = orlghelovar_microscope_research_done
		}
	}
	
	orlghelovar_invention_of_a_decade = {
		icon = mission_rb_weather_the_reformation
		position = 22
		required_missions = {
			orlghelovar_investigate_society
		}
		
		trigger = {
			NOT = {
				has_country_modifier = orlghelovar_testing_microscope
			}
		}
		
		effect = {
			country_event = { id = flavor_orlghelovar.145 }
		}
	}
}
#Medicine
orlghelovar_medicine_1 = {
	slot = 1
	generic = no
	ai = no
	has_country_shield = yes
	potential = {
		OR = {
			tag = I12
			AND = {
				tag = I24
				was_tag = I12
			}
		}
		OR = {
			has_country_flag = orlghelovar_medicine_research
			has_country_flag = orlghelovar_medicine_research_2
			has_country_flag = orlghelovar_microscope_research_done
		}
	}
	
	orlghelovar_dedicate_doctors = {
		icon = mission_three_death
		position = 23
		required_missions = {
			orlghelovar_invention_of_a_decade
		}
		
		trigger = {
			adm_power = 200
			treasury = 1000
			4093 = {
				development = 90
			}
		}
		
		effect = {
			add_adm_power = -200
			add_treasury = -1000
			4093 = {
				add_permanent_province_modifier = { name = orlghelovar_center_of_medicine duration = -1 }
			}
		}
	}
	
	orlghelovar_centralize_knowledge = {
		icon = mission_pray_light
		position = 24
		required_missions = {
			orlghelovar_dedicate_doctors
		}
		
		provinces_to_highlight = {
			has_province_flag = caurak_collapse
		}
		
		trigger = {
			OR = {
				custom_trigger_tooltip = {
					tooltip = orlghelovar_medicine_cave_own_tt
					any_owned_province = {
						has_province_flag = caurak_collapse
					}
				}
				any_known_country = {
					has_spy_network_from = {
						who = ROOT
						value = 75
					}
					custom_trigger_tooltip = {
						tooltip = orlghelovar_medicine_cave_tt
						any_owned_province = {
							has_province_flag = caurak_collapse
						}
					}
				}
			}
		}
		
		effect = {
			country_event = { id = flavor_orlghelovar.205 }
		}
	}
}
orlghelovar_medicine_2 = {
	slot = 1
	generic = no
	ai = no
	has_country_shield = yes
	potential = {
		OR = {
			tag = I12
			AND = {
				tag = I24
				was_tag = I12
			}
		}
		OR = {
			has_country_flag = orlghelovar_medicine_research_2
			has_country_flag = orlghelovar_microscope_research_done
		}
	}
	
	orlghelovar_publish_study = {
		icon = standardize_relazioni
		position = 25
		required_missions = {
			orlghelovar_centralize_knowledge
		}
		
		trigger = {
			if = {
				limit = { any_known_country = { capital_scope = { superregion = western_cannor_superregion } } }
				any_known_country = {
					capital_scope = {
						superregion = western_cannor_superregion
					}
					has_opinion = {
						who = ROOT
						value = 100
					}
				}
			}
			if = {
				limit = { any_known_country = { capital_scope = { superregion = bulwar_superregion } } }
				any_known_country = {
					capital_scope = {
						superregion = bulwar_superregion
					}
					has_opinion = {
						who = ROOT
						value = 100
					}
				}
			}
			if = {
				limit = { any_known_country = { capital_scope = { superregion = rahen_superregion } } }
				any_known_country = {
					capital_scope = {
						superregion = rahen_superregion
					}
					has_opinion = {
						who = ROOT
						value = 100
					}
				}
			}
			if = {
				limit = { any_known_country = { capital_scope = { superregion = north_haless_superregion } } }
				any_known_country = {
					capital_scope = {
						superregion = north_haless_superregion
					}
					has_opinion = {
						who = ROOT
						value = 100
					}
				}
			}
			if = {
				limit = { any_known_country = { capital_scope = { superregion = south_haless_superregion } } }
				any_known_country = {
					capital_scope = {
						superregion = south_haless_superregion
					}
					has_opinion = {
						who = ROOT
						value = 100
					}
				}
			}
			if = {
				limit = { any_known_country = { capital_scope = { superregion = escann_superregion } } }
				any_known_country = {
					capital_scope = {
						superregion = escann_superregion
					}
					has_opinion = {
						who = ROOT
						value = 100
					}
				}
			}
		}
		
		effect = {
			country_event = { id = flavor_orlghelovar.209 }
		}
	}
}
#Basic Laser, shortform LAD
orlghelovar_lad_1a = {
	slot = 2
	generic = no
	ai = no
	has_country_shield = yes
	potential = {
		OR = {
			tag = I12
			AND = {
				tag = I24
				was_tag = I12
			}
		}
		OR = {
			has_country_flag = orlghelovar_lad_research
			has_country_flag = orlghelovar_lad_research_2
			has_country_flag = orlghelovar_lad_research_done
		}
	}
	
	orlghelovar_leap_into_future = {
		icon = mission_thinking_king
		position = 25
		required_missions = {
			orlghelovar_black_damestear_security
		}
		
		trigger = {
			innovativeness = 75
			adm_power = 200
			dip_power = 200
			mil_power = 200
		}
		
		effect = {
			add_country_modifier = { name = orlghelovar_future_research duration = 1825 }
		}
	}
	
	orlghelovar_theory_of_energy = {
		icon = mission_writing_book
		position = 26
		required_missions = {
			orlghelovar_leap_into_future
		}
		
		trigger = {
			has_mil_advisor_5 = yes
			has_adm_advisor_5 = yes
			has_dip_advisor_5 = yes
			num_of_owned_provinces_with = {
				value = 50
				has_building = university
			}
			estate_loyalty = {
				estate = estate_artificers
				loyalty = 60
			}
			estate_influence = {
				estate = estate_artificers
				influence = 50
			}
		}
		
		effect = {
			country_event = { id = flavor_orlghelovar.150 }
		}
	}
}
orlghelovar_lad_1b = {
	slot = 1
	generic = no
	ai = no
	has_country_shield = yes
	potential = {
		OR = {
			tag = I12
			AND = {
				tag = I24
				was_tag = I12
			}
		}
		OR = {
			has_country_flag = orlghelovar_lad_research
			has_country_flag = orlghelovar_lad_research_2
			has_country_flag = orlghelovar_lad_research_done
		}
	}
	
	orlghelovar_collect_base_resource = {
		icon = mission_treasure_room
		position = 26
		required_missions = {
			orlghelovar_leap_into_future
		}
		
		trigger = {
			2942 = {
				development = 90
				has_building = university
				is_prosperous = yes
			}
			4238 = {
				is_prosperous = yes
				has_multiple_manufactory_trigger = { VAL = 2 }
				has_dwarven_hold_9 = yes
			}
		}
		
		effect = {
			country_event = { id = flavor_orlghelovar.152 }
		}
	}
}
orlghelovar_lad_2 = {
	slot = 2
	generic = no
	ai = no
	has_country_shield = yes
	potential = {
		OR = {
			tag = I12
			AND = {
				tag = I24
				was_tag = I12
			}
		}
		OR = {
			has_country_flag = orlghelovar_lad_research_2
			has_country_flag = orlghelovar_lad_research_done
		}
	}
	
	orlghelovar_moment_of_truth = {
		icon = mission_machine_of_war
		position = 27
		required_missions = {
			orlghelovar_collect_base_resource
			orlghelovar_theory_of_energy
		}
		
		trigger = {
			NOT = {
				has_country_modifier = orlghelovar_drained_supply
			}
			custom_trigger_tooltip = {
				tooltip = orlghelovar_capacity_check_tt
				check_variable = {
					which = MaxArtificePoints
					value = 30
				}
			}
		}
		
		effect = {
			country_event = { id = flavor_orlghelovar.153 }
		}
	}
}
#Advanced Lasers
orlghelovar_lad_advanced_1 = {
	slot = 3
	generic = no
	ai = no
	has_country_shield = yes
	potential = {
		OR = {
			tag = I12
			AND = {
				tag = I24
				was_tag = I12
			}
		}
		has_country_flag = orlghelovar_lad_advanced_research
	}
	
	orlghelovar_possibilities_of_light = {
		icon = mission_suppress_the_saophasa
		position = 25
		required_missions = {
			orlghelovar_black_damestear_security
		}
		
		trigger = {
			innovativeness = 100
		}
		
		effect = {
			add_country_modifier = { name = orlghelovar_advanced_laser_research duration = 1825 }
		}
	}
	
	orlghelovar_breaking_light = {
		icon = mission_smith
		position = 26
		required_missions = {
			orlghelovar_possibilities_of_light
		}
		
		trigger = {
			NOT = {
				has_country_modifier = orlghelovar_advanced_laser_research
			}
			adm_power = 500
			dip_power = 500
			years_of_income = 1.0
			num_of_owned_provinces_with = {
				value = 50
				has_manufactory_trigger = yes
			}
		}
		
		effect = {
			country_event = { id = flavor_orlghelovar.201 }
		}
	}
}
orlghelovar_lad_advanced_2 = {
	slot = 4
	generic = no
	ai = no
	has_country_shield = yes
	potential = {
		OR = {
			tag = I12
			AND = {
				tag = I24
				was_tag = I12
			}
		}
		has_country_flag = orlghelovar_lad_advanced_research
	}
	
	orlghelovar_blinding_light = {
		icon = mission_runeforged_cannons
		position = 26
		required_missions = {
			orlghelovar_possibilities_of_light
		}
		
		trigger = {
			NOT = {
				has_country_modifier = orlghelovar_advanced_laser_research 
			}
			mil_power = 500
			commandant = 5
			years_of_income = 2.5
			army_size = 300
		}
		
		effect = {
			country_event = { id = flavor_orlghelovar.202 }
		}
	}
}
#Bulletproof Glass/Mithril Armour
orlghelovar_armour_protection_1 = {
	slot = 5
	generic = no
	ai = no
	has_country_shield = yes
	potential = {
		OR = {
			tag = I12
			AND = {
				tag = I24
				was_tag = I12
			}
		}
		OR = {
			has_country_flag = orlghelovar_armour_protection
			has_country_flag = orlghelovar_armour_protection_2
			has_country_flag = orlghelovar_armour_protection_3
			has_country_flag = orlghelovar_armour_protection_done
		}
	}
	
	orlghelovar_establish_ideas = {
		icon = mission_science
		position = 23
		required_missions = {
			orlghelovar_many_uses_of_sapphire_glass
		}
		
		trigger = {
			innovativeness = 25
			army_professionalism = 0.25
			NOT = {
				any_owned_province = {
					has_province_modifier = dwarovar_rail
				}
			}
		}
		
		effect = {
			country_event = { id = flavor_orlghelovar.131 }
		}
	}
}
orlghelovar_armour_protection_2 = {
	slot = 5
	generic = no
	ai = no
	has_country_shield = yes
	potential = {
		OR = {
			tag = I12
			AND = {
				tag = I24
				was_tag = I12
			}
		}
		OR = {
			has_country_flag = orlghelovar_armour_protection_2
			has_country_flag = orlghelovar_armour_protection_3
			has_country_flag = orlghelovar_armour_protection_done
		}
	}
	
	orlghelovar_gain_access_to_mithril = {
		icon = mission_jawal_silver_mine
		position = 24
		required_missions = {
			orlghelovar_establish_ideas
		}
		
		trigger = {
			4236 = {
				OR = {
					AND = {
						owned_by = ROOT
						hold_condition = { Repaired = yes }
					}
					AND = {
						owner = {
							NOT = {
								primary_culture = cave_goblin
								primary_culture = black_orc
							}
							has_opinion = {
								who = ROOT
								value = 100
							}
						}
						ROOT = { treasury = 1000 }
					}
				}
			}
		}
		
		effect = {
			if = {
				limit = {
					4236 = {
						owned_by = ROOT
					}
				}
				add_prestige = 10
			}
			else = {
				add_treasury = -1000
			}
		}
	}
	
	orlghelovar_apprentices_thought = {
		icon = mission_diplomacy_missive
		position = 25
		required_missions = {
			orlghelovar_gain_access_to_mithril
		}
		
		trigger = {
			treasury = 1000
			adm_power = 100
			dip_power = 100
			mil_power = 100
		}
		
		effect = {
			country_event = { id = flavor_orlghelovar.135 }
		}
	}
}
orlghelovar_armour_protection_3 = {
	slot = 5
	generic = no
	ai = no
	has_country_shield = yes
	potential = {
		OR = {
			tag = I12
			AND = {
				tag = I24
				was_tag = I12
			}
		}
		OR = {
			has_country_flag = orlghelovar_armour_protection_3
			has_country_flag = orlghelovar_armour_protection_done
		}
	}
	
	orlghelovar_start_mass_production = {
		icon = mission_bankers_of_cambay
		position = 26
		required_missions = {
			orlghelovar_apprentices_thought
		}
		
		trigger = {
			2973 = {
				development = 70
				has_manpower_building_trigger = yes
				has_forcelimit_building_trigger = yes
				has_manufactory_trigger = yes
			}
		}
		
		effect = {
			custom_tooltip = orlghelovar_shatterproof_armor_tt
			set_country_flag = orlghelovar_shatterproof_armor
			set_country_flag = orlghelovar_armour_protection_done
			custom_tooltip = orlghelovar_finished_research_arc_tt
			hidden_effect = { country_event = { id = flavor_orlghelovar.100 days = 365 } }
			hidden_effect = {
				if = {
					limit = { has_country_flag = orlghelovar_magical_bullets_research_done }
					country_event = { id = flavor_orlghelovar.203 days = 1095 }
				}
			}
		}
	}
}
#Military Reforms
orlghelovar_military_1 = {
	slot = 4
	generic = no
	ai = no
	has_country_shield = yes
	potential = {
		OR = {
			tag = I12
			AND = {
				tag = I24
				was_tag = I12
			}
		}
		has_country_flag = orlghelovar_military
	}
	
	orlghelovar_switch_protective_gear = {
		icon = mission_armoury
		position = 27
		required_missions = {
			orlghelovar_start_mass_production
		}
		
		trigger = {
			army_organiser = 5
			mil_power = 500
			num_of_owned_provinces_with = {
				value = 30
				has_building = training_fields
			}
		}
		
		effect = {
			add_mil_power = -500
			add_country_modifier = { name = orlghelovar_protective_gear duration = -1 }
			add_country_modifier = { name = orlghelovar_adapting_to_gear duration = 3650 }
		}
	}
}
orlghelovar_military_2 = {
	slot = 3
	generic = no
	ai = no
	has_country_shield = yes
	potential = {
		OR = {
			tag = I12
			AND = {
				tag = I24
				was_tag = I12
			}
		}
		has_country_flag = orlghelovar_military
	}
	
	orlghelovar_glass_rifles = {
		icon = mission_cannons_firing
		position = 27
		
		trigger = {
			has_idea_group = quality_ideas
			quality_ideas = 7
			army_reformer = 5
			mil_power = 500
			num_of_owned_provinces_with = {
				value = 30
				has_forcelimit_building_trigger = yes
			}
		}
		
		effect = {
			add_mil_power = -500
			add_country_modifier = { name = orlghelovar_adapting_to_weapons duration = 3650 }
		}
	}
	
	orlghelovar_scientific_army = {
		icon = mission_assemble_an_army_and_factory_smoke
		position = 28
		required_missions = {
			orlghelovar_glass_rifles
			orlghelovar_switch_protective_gear
		}
		
		trigger = {
			NOT = {
				has_country_modifier = orlghelovar_adapting_to_gear
				has_country_modifier = orlghelovar_adapting_to_weapons
			}
			years_of_income = 1.0
		}
		
		effect = {
			add_years_of_income = -1.0
			add_country_modifier = { name = orlghelovar_science_army duration = -1 }
		}
	}
}	